fpu.vcd
$date
	Fri Apr 24 00:02:40 2026
$end
$version
	Icarus Verilog
$end
$timescale
	1ps
$end
$scope module fpu_tb $end
$var wire 1 ! f_underflow $end
$var wire 1 " f_overflow $end
$var wire 1 # f_inv_op $end
$var wire 1 $ f_inexact $end
$var wire 1 % f_div_zero $end
$var wire 1 & done $end
$var wire 32 ' c [31:0] $end
$var wire 1 ( busy $end
$var reg 32 ) a [31:0] $end
$var reg 32 * b [31:0] $end
$var reg 1 + clock $end
$var reg 3 , op [2:0] $end
$var reg 1 - reset $end
$var reg 1 . start $end
$var integer 32 / cycles [31:0] $end
$scope module uut $end
$var wire 32 0 a [31:0] $end
$var wire 32 1 b [31:0] $end
$var wire 1 ( busy $end
$var wire 32 2 c [31:0] $end
$var wire 1 + clock $end
$var wire 1 & done $end
$var wire 1 % f_div_zero $end
$var wire 1 $ f_inexact $end
$var wire 1 # f_inv_op $end
$var wire 1 " f_overflow $end
$var wire 1 ! f_underflow $end
$var wire 1 3 flag_inv_op_comb $end
$var wire 1 4 is_inv_add $end
$var wire 1 5 is_inv_div $end
$var wire 1 6 is_inv_mul $end
$var wire 1 7 is_inv_sub $end
$var wire 3 8 op [2:0] $end
$var wire 1 - reset $end
$var wire 1 . start $end
$var wire 1 9 sign_b $end
$var wire 1 : sign_a $end
$var wire 1 ; norm_underflow $end
$var wire 1 < norm_sign_out $end
$var wire 1 = norm_overflow $end
$var wire 1 > norm_inexact $end
$var wire 23 ? norm_frac_out [22:0] $end
$var wire 8 @ norm_exp_out [7:0] $end
$var wire 1 A mul_sign $end
$var wire 28 B mul_mant [27:0] $end
$var wire 10 C mul_exp [9:0] $end
$var wire 1 D mul_done_out $end
$var wire 1 E mul_busy_out $end
$var wire 24 F mant_b [23:0] $end
$var wire 24 G mant_a [23:0] $end
$var wire 1 H is_zero_b $end
$var wire 1 I is_zero_a $end
$var wire 1 J is_subnorm_b $end
$var wire 1 K is_subnorm_a $end
$var wire 1 L is_nan_b $end
$var wire 1 M is_nan_a $end
$var wire 1 N is_inf_b $end
$var wire 1 O is_inf_a $end
$var wire 8 P exp_b [7:0] $end
$var wire 8 Q exp_a [7:0] $end
$var wire 1 R div_sign $end
$var wire 28 S div_mant [27:0] $end
$var wire 1 T div_f_div_zero $end
$var wire 10 U div_exp [9:0] $end
$var wire 1 V div_done_out $end
$var wire 1 W div_busy_out $end
$var wire 32 X cmp_res [31:0] $end
$var wire 1 Y add_sign $end
$var wire 28 Z add_mant [27:0] $end
$var wire 8 [ add_exp [7:0] $end
$var parameter 2 \ COMPUTE $end
$var parameter 2 ] FINISH $end
$var parameter 2 ^ IDLE $end
$var reg 1 _ div_start_reg $end
$var reg 1 ` mul_start_reg $end
$var reg 10 a norm_exp_in [9:0] $end
$var reg 28 b norm_mant_in [27:0] $end
$var reg 1 c norm_sign_in $end
$var reg 1 d reg_busy $end
$var reg 32 e reg_c [31:0] $end
$var reg 1 f reg_done $end
$var reg 1 g reg_f_div_zero $end
$var reg 1 h reg_f_inexact $end
$var reg 1 i reg_f_inv_op $end
$var reg 1 j reg_f_overflow $end
$var reg 1 k reg_f_underflow $end
$var reg 1 l spec_is_inf $end
$var reg 1 m spec_is_zero $end
$var reg 1 n spec_sign $end
$var reg 2 o state [1:0] $end
$scope module adder $end
$var wire 1 p a_is_larger $end
$var wire 1 q eff_sub $end
$var wire 1 r force_sticky $end
$var wire 1 s op_sub $end
$var wire 8 t res_exp [7:0] $end
$var wire 28 u res_mant [27:0] $end
$var wire 1 v sticky_bit $end
$var wire 28 w smaller_mant_ext [27:0] $end
$var wire 24 x smaller_mant [23:0] $end
$var wire 8 y smaller_exp [7:0] $end
$var wire 1 9 sign_b $end
$var wire 1 : sign_a $end
$var wire 51 z shifted_smaller [50:0] $end
$var wire 8 { shift_amt [7:0] $end
$var wire 1 | round_bit $end
$var wire 1 Y res_sign $end
$var wire 51 } mant_to_shift [50:0] $end
$var wire 24 ~ mant_b [23:0] $end
$var wire 24 !" mant_a [23:0] $end
$var wire 28 "" larger_mant_ext [27:0] $end
$var wire 24 #" larger_mant [23:0] $end
$var wire 8 $" larger_exp [7:0] $end
$var wire 1 %" guard_bit $end
$var wire 8 &" exp_diff [7:0] $end
$var wire 8 '" exp_b [7:0] $end
$var wire 8 (" exp_a [7:0] $end
$var wire 28 )" calc_mant [27:0] $end
$var wire 24 *" aligned_smaller_mant [23:0] $end
$scope module shifter_inst $end
$var wire 51 +" data_in [50:0] $end
$var wire 51 ," data_out [50:0] $end
$var wire 5 -" shamt [4:0] $end
$var wire 51 ." s4 [50:0] $end
$var wire 51 /" s3 [50:0] $end
$var wire 51 0" s2 [50:0] $end
$var wire 51 1" s1 [50:0] $end
$var wire 51 2" s0 [50:0] $end
$upscope $end
$upscope $end
$scope module comparator $end
$var wire 1 3" a_is_nan $end
$var wire 1 4" any_nan $end
$var wire 1 5" b_is_nan $end
$var wire 1 6" both_neg_lt $end
$var wire 1 7" both_pos_lt $end
$var wire 1 8" both_zero $end
$var wire 1 9" diff_signs_lt $end
$var wire 1 :" is_slt $end
$var wire 1 ;" mag_a_gt_mag_b $end
$var wire 1 <" mag_a_lt_mag_b $end
$var wire 1 =" raw_equal $end
$var wire 1 >" raw_lt $end
$var wire 1 9 sign_b $end
$var wire 1 : sign_a $end
$var wire 32 ?" res_cmp [31:0] $end
$var wire 24 @" mant_b [23:0] $end
$var wire 24 A" mant_a [23:0] $end
$var wire 1 H is_zero_b $end
$var wire 1 I is_zero_a $end
$var wire 1 B" is_equal $end
$var wire 8 C" exp_b [7:0] $end
$var wire 8 D" exp_a [7:0] $end
$var wire 1 E" condition_met $end
$var wire 1 F" a_lt_b $end
$upscope $end
$scope module divider $end
$var wire 1 + clock $end
$var wire 1 T f_div_zero $end
$var wire 1 R res_sign $end
$var wire 1 - reset $end
$var wire 1 _ start $end
$var wire 1 9 sign_b $end
$var wire 1 : sign_a $end
$var wire 28 G" res_mant [27:0] $end
$var wire 10 H" res_exp [9:0] $end
$var wire 24 I" mant_b [23:0] $end
$var wire 24 J" mant_a [23:0] $end
$var wire 10 K" exp_b_ext [9:0] $end
$var wire 8 L" exp_b [7:0] $end
$var wire 10 M" exp_a_ext [9:0] $end
$var wire 8 N" exp_a [7:0] $end
$var parameter 3 O" CLEANUP $end
$var parameter 3 P" FIM $end
$var parameter 3 Q" IDLE $end
$var parameter 3 R" RESTORE $end
$var parameter 3 S" SHIFT $end
$var parameter 3 T" SUBTRACT $end
$var reg 25 U" acc [24:0] $end
$var reg 1 W busy $end
$var reg 5 V" count [4:0] $end
$var reg 25 W" divisor_reg [24:0] $end
$var reg 1 V done $end
$var reg 26 X" quociente [25:0] $end
$var reg 3 Y" state [2:0] $end
$var reg 1 Z" sticky_bit_reg $end
$upscope $end
$scope module multiplier $end
$var wire 1 + clock $end
$var wire 1 A res_sign $end
$var wire 1 - reset $end
$var wire 1 ` start $end
$var wire 1 [" sticky_bit $end
$var wire 1 9 sign_b $end
$var wire 1 : sign_a $end
$var wire 1 \" round_bit $end
$var wire 28 ]" res_mant [27:0] $end
$var wire 10 ^" res_exp [9:0] $end
$var wire 24 _" mant_b [23:0] $end
$var wire 24 `" mant_a [23:0] $end
$var wire 1 a" guard_bit $end
$var wire 10 b" exp_b_ext [9:0] $end
$var wire 8 c" exp_b [7:0] $end
$var wire 10 d" exp_a_ext [9:0] $end
$var wire 8 e" exp_a [7:0] $end
$var parameter 2 f" COMPUTE $end
$var parameter 2 g" FINISH $end
$var parameter 2 h" IDLE $end
$var reg 48 i" acc [47:0] $end
$var reg 1 E busy $end
$var reg 5 j" count [4:0] $end
$var reg 1 D done $end
$var reg 48 k" multiplicand [47:0] $end
$var reg 24 l" multiplier [23:0] $end
$var reg 2 m" state [1:0] $end
$upscope $end
$scope module normalizer $end
$var wire 10 n" exp_in [9:0] $end
$var wire 28 o" mant_in [27:0] $end
$var wire 1 c sign $end
$var wire 12 p" underflow_diff [11:0] $end
$var wire 28 q" subnormal_shifted_out [27:0] $end
$var wire 5 r" subnormal_shamt [4:0] $end
$var wire 28 s" mant_right_out [27:0] $end
$var wire 28 t" mant_left_out [27:0] $end
$var reg 12 u" adj_exp [11:0] $end
$var reg 1 > f_inexact $end
$var reg 1 = f_overflow $end
$var reg 1 ; f_underflow $end
$var reg 1 v" guard $end
$var reg 1 w" inexact_temp $end
$var reg 5 x" left_shift_amt [4:0] $end
$var reg 8 y" res_exp [7:0] $end
$var reg 23 z" res_frac [22:0] $end
$var reg 1 < res_sign $end
$var reg 1 {" round $end
$var reg 1 |" round_up $end
$var reg 25 }" rounded_mant [24:0] $end
$var reg 28 ~" shifted_mant [27:0] $end
$var reg 12 !# signed_exp_in [11:0] $end
$var reg 1 "# sticky $end
$scope module shift_l $end
$var wire 28 ## data_in [27:0] $end
$var wire 28 $# data_out [27:0] $end
$var wire 5 %# shamt [4:0] $end
$var wire 28 &# s4 [27:0] $end
$var wire 28 '# s3 [27:0] $end
$var wire 28 (# s2 [27:0] $end
$var wire 28 )# s1 [27:0] $end
$var wire 28 *# s0 [27:0] $end
$upscope $end
$scope module shift_r $end
$var wire 28 +# data_in [27:0] $end
$var wire 28 ,# data_out [27:0] $end
$var wire 5 -# shamt [4:0] $end
$var wire 28 .# s4 [27:0] $end
$var wire 28 /# s3 [27:0] $end
$var wire 28 0# s2 [27:0] $end
$var wire 28 1# s1 [27:0] $end
$var wire 28 2# s0 [27:0] $end
$upscope $end
$scope module uflow_shifter $end
$var wire 28 3# data_in [27:0] $end
$var wire 28 4# data_out [27:0] $end
$var wire 5 5# shamt [4:0] $end
$var wire 28 6# s4 [27:0] $end
$var wire 28 7# s3 [27:0] $end
$var wire 28 8# s2 [27:0] $end
$var wire 28 9# s1 [27:0] $end
$var wire 28 :# s0 [27:0] $end
$upscope $end
$upscope $end
$scope module unp_a $end
$var wire 1 O is_inf $end
$var wire 1 M is_nan $end
$var wire 1 K is_subnormal $end
$var wire 1 I is_zero $end
$var wire 32 ;# operand [31:0] $end
$var wire 1 : sign $end
$var wire 8 <# raw_exp [7:0] $end
$var wire 24 =# mant [23:0] $end
$var wire 23 ># frac [22:0] $end
$var wire 8 ?# exp [7:0] $end
$upscope $end
$scope module unp_b $end
$var wire 1 N is_inf $end
$var wire 1 L is_nan $end
$var wire 1 J is_subnormal $end
$var wire 1 H is_zero $end
$var wire 32 @# operand [31:0] $end
$var wire 1 9 sign $end
$var wire 8 A# raw_exp [7:0] $end
$var wire 24 B# mant [23:0] $end
$var wire 23 C# frac [22:0] $end
$var wire 8 D# exp [7:0] $end
$upscope $end
$upscope $end
$scope task run_test $end
$var reg 1 E# check_c $end
$var reg 32 F# expected_c [31:0] $end
$var reg 800 G# name [800:1] $end
$var reg 32 H# val_a [31:0] $end
$var reg 32 I# val_b [31:0] $end
$var reg 3 J# val_op [2:0] $end
$upscope $end
$upscope $end
$enddefinitions $end
$comment Show the parameter values. $end
$dumpall
b0 h"
b10 g"
b1 f"
b1 T"
b11 S"
b10 R"
b0 Q"
b101 P"
b100 O"
b0 ^
b10 ]
b1 \
$end
#0
$dumpvars
bx J#
bx I#
bx H#
bx G#
bx F#
xE#
bx D#
bx C#
bx B#
bx A#
bx @#
bx ?#
bx >#
bx =#
bx <#
bx ;#
b0 :#
b0 9#
b0 8#
b0 7#
b0 6#
b1 5#
b0 4#
b0 3#
b0 2#
b0 1#
b0 0#
b0 /#
b0 .#
b1 -#
b0 ,#
b0 +#
b0 *#
b0 )#
b0 (#
b0 '#
b0 &#
b0 %#
b0 $#
b0 ##
0"#
b0 !#
b0 ~"
b0 }"
0|"
0{"
b0 z"
b0 y"
b0 x"
0w"
0v"
b0 u"
b0 t"
b0 s"
b1 r"
b0 q"
b1 p"
b0 o"
b0 n"
b0 m"
b0 l"
b0 k"
b0 j"
b0 i"
bx e"
b0xxxxxxxx d"
bx c"
b0xxxxxxxx b"
0a"
bx `"
bx _"
bx ^"
b0 ]"
0\"
0["
0Z"
b0 Y"
b0 X"
b0 W"
b0 V"
b0 U"
bx N"
b0xxxxxxxx M"
bx L"
b0xxxxxxxx K"
bx J"
bx I"
bx H"
b0 G"
xF"
xE"
bx D"
bx C"
xB"
bx A"
bx @"
b0xxxxxxx00000000000000000000000 ?"
x>"
x="
x<"
x;"
x:"
x9"
x8"
x7"
x6"
x5"
x4"
x3"
b0xxxxxxxxxxxxxxxxxxxxxxxxx0000000000000000000000000 2"
b0xxxxxxxxxxxxxxxxxxxxxxxxxxx00000000000000000000000 1"
b0xxxxxxxxxxxxxxxxxxxxxxxxxxxxxxx0000000000000000000 0"
b0xxxxxxxxxxxxxxxxxxxxxxxxxxxxxxxxxxxxxxx00000000000 /"
b0xxxxxxxxxxxxxxxxxxxxxxxxxxxxxxxxxxxxxxxxxxxxxxxxxx ."
bx -"
b0xxxxxxxxxxxxxxxxxxxxxxxxxxxxxxxxxxxxxxxxxxxxxxxxxx ,"
b0xxxxxxxxxxxxxxxxxxxxxxxx00000000000000000000000000 +"
bx *"
bx )"
bx ("
bx '"
bx &"
x%"
bx $"
bx #"
b0xxxxxxxxxxxxxxxxxxxxxxxx000 ""
bx !"
bx ~
b0xxxxxxxxxxxxxxxxxxxxxxxx00000000000000000000000000 }
x|
bx {
b0xxxxxxxxxxxxxxxxxxxxxxxxxxxxxxxxxxxxxxxxxxxxxxxxxx z
bx y
bx x
b0xxxxxxxxxxxxxxxxxxxxxxxxxxx w
xv
bx u
bx t
xs
xr
xq
xp
b0 o
xn
xm
xl
0k
0j
0i
0h
0g
0f
b0 e
0d
0c
b0 b
b0 a
0`
0_
bx [
bx Z
xY
b0xxxxxxx00000000000000000000000 X
0W
0V
bx U
xT
b0 S
xR
bx Q
bx P
xO
xN
xM
xL
xK
xJ
xI
xH
bx G
bx F
0E
0D
bx C
b0 B
xA
b0 @
b0 ?
0>
0=
0<
0;
x:
x9
bx 8
x7
x6
x5
x4
x3
b0 2
bx 1
bx 0
bx /
0.
1-
bx ,
0+
bx *
bx )
0(
b0 '
0&
0%
0$
0#
0"
0!
$end
#5000
1+
#10000
0+
#15000
1+
#20000
0+
0-
#25000
1+
#30000
0+
#35000
1+
#40000
b110000000000000000000000000 Z
b110000000000000000000000000 u
b110000000000000000000000000 )"
b110000000000000000000000 q"
b110000000000000000000000 4#
b110000000000000000000000 6#
b110000000000000000000000 7#
0v
b10000000000000000000000000 w
b110000000000000000000000 8#
0|
0%"
b10000000000000000000000 *"
b110000000000000000000000 9#
b110000000000000000000000 :#
b110000000000000000000000 3#
b10000000000000000000000 ?
b10000000000000000000000 z"
0>
b1000000000000000000000000000000000000000000000000 /"
b1000000000000000000000000000000000000000000000000 z
b1000000000000000000000000000000000000000000000000 ,"
b1000000000000000000000000000000000000000000000000 ."
b1000000000000000000000000000000000000000000000000 0"
b110000000000000000000000 }"
0|"
0w"
0"#
0{"
0v"
b110000000000000000000000000 ~"
b11000000000000000000000000 s"
b11000000000000000000000000 ,#
b11000000000000000000000000 .#
b0 X
b0 ?"
b1000000000000000000000000000000000000000000000000 1"
1F"
b110000000000000000000000000 t"
b110000000000000000000000000 $#
b110000000000000000000000000 &#
b11000000000000000000000000 /#
b1 -"
0E"
1>"
03
b110000000000000000000000000 '#
b11000000000000000000000000 0#
b1 {
0r
0B"
b1000000000000000000000000000000000000000000000000 2"
b110000000000000000000000000 (#
b11000000000000000000000000 1#
b1 &"
b10000000 [
b10000000 t
b10000000 $"
b1111111 y
0Y
04"
0="
b100000000000000000000000000 ""
17"
b110000000000000000000000000 )#
b11000000000000000000000000 2#
b10000000 @
b10000000 y"
b0 r"
b0 5#
0;"
1<"
05"
0p
0T
0q
03"
08"
b10000000000000000000000000000000000000000000000000 }
b10000000000000000000000000000000000000000000000000 +"
b100000000000000000000000 x
b100000000000000000000000 #"
06"
09"
07
04
b110000000000000000000000000 *#
b111110000001 p"
b10000000 u"
b10000000 !#
0;
0<
b10000000 C
b10000000 ^"
b10000000 b"
b1111110 U
b1111110 H"
b10000000 K"
b10000000 P
b10000000 '"
b10000000 C"
b10000000 L"
b10000000 c"
b10000000 D#
0H
0J
0N
0L
b100000000000000000000000 F
b100000000000000000000000 ~
b100000000000000000000000 @"
b100000000000000000000000 I"
b100000000000000000000000 _"
b100000000000000000000000 B#
b1111111 d"
b1111111 M"
b1111111 Q
b1111111 ("
b1111111 D"
b1111111 N"
b1111111 e"
b1111111 ?#
0I
0K
0O
0M
b100000000000000000000000 G
b100000000000000000000000 !"
b100000000000000000000000 A"
b100000000000000000000000 J"
b100000000000000000000000 `"
b100000000000000000000000 =#
0A
0R
0n
0m
0l
b110000000000000000000000000 b
b110000000000000000000000000 o"
b110000000000000000000000000 ##
b110000000000000000000000000 +#
b10000000 a
b10000000 n"
0c
0s
0:"
06
05
b10000000 A#
b0 C#
09
b1111111 <#
b0 >#
0:
0+
b0 ,
b0 8
b1000000000000000000000000000000 *
b1000000000000000000000000000000 1
b1000000000000000000000000000000 @#
b111111100000000000000000000000 )
b111111100000000000000000000000 0
b111111100000000000000000000000 ;#
b11000100101011001100100011110100110011 G#
1E#
b1000000010000000000000000000000 F#
b0 J#
b1000000000000000000000000000000 I#
b111111100000000000000000000000 H#
#45000
b1 o
1(
1d
1.
1+
#50000
0+
#55000
b10 o
b0 /
0.
1+
#60000
0+
#65000
b0 o
b1000000010000000000000000000000 '
b1000000010000000000000000000000 2
b1000000010000000000000000000000 e
1&
1f
0(
0d
b1 /
1+
#70000
0+
#75000
0&
0f
b10 /
1+
#80000
0+
#85000
b0 r"
b0 5#
b100000000000000000000000 q"
b100000000000000000000000 4#
b100000000000000000000000 6#
0;
b100000000000000000000000 7#
b100000000000000000000000 8#
b100000000000000000000000 9#
b100000000000000000000000 :#
b10000000000000000000000000 w
b100000000000000000000000 3#
b10000000000000000000000 *"
b100000000000000000000000 }"
b100000000000000000000000000 ~"
b1000000000000000000000000 s"
b1000000000000000000000000 ,#
b1000000000000000000000000 .#
b1000000000000000000000000000000000000000000000000 z
b1000000000000000000000000000000000000000000000000 ,"
b1000000000000000000000000000000000000000000000000 ."
b100000000000000000000000000 t"
b100000000000000000000000000 $#
b100000000000000000000000000 &#
b1000000000000000000000000 /#
b1000000000000000000000000000000000000000000000000 /"
b100000000000000000000000000 '#
b1000000000000000000000000 0#
b1000000000000000000000000000000000000000000000000 0"
b100000000000000000000000000 (#
b1000000000000000000000000 1#
b1000000000000000000000000000000000000000000000000 1"
b100000000000000000000000000 )#
b1000000000000000000000000 2#
b111110000010 p"
b1111111 u"
0F"
b1000000000000000000000000000000000000000000000000 2"
b100000000000000000000000000 *#
b1 x"
b1 %#
b0 ?
b0 z"
b1111111 @
b1111111 y"
0>"
b10000000000000000000000000 b
b10000000000000000000000000 o"
b10000000000000000000000000 ##
b10000000000000000000000000 +#
b1 -"
b10000000000000000000000000 Z
b10000000000000000000000000 u
b10000000000000000000000000 )"
07"
b1 {
1q
b0 X
b0 ?"
1;"
1p
0<"
b1 &"
b1111111 y
0E"
b1111111 b"
b1111111 K"
b1111111 P
b1111111 '"
b1111111 C"
b1111111 L"
b1111111 c"
b1111111 D#
b10000000 C
b10000000 ^"
b10000000 d"
b10000000 U
b10000000 H"
b10000000 M"
b10000000 Q
b10000000 ("
b10000000 D"
b10000000 N"
b10000000 e"
b10000000 ?#
1s
1:"
b1111111 A#
b10000000 <#
b1 ,
b1 8
b111111100000000000000000000000 *
b111111100000000000000000000000 1
b111111100000000000000000000000 @#
b1000000000000000000000000000000 )
b1000000000000000000000000000000 0
b1000000000000000000000000000000 ;#
b11001000101101001100010011110100110001 G#
b111111100000000000000000000000 F#
b1 J#
b111111100000000000000000000000 I#
b1000000000000000000000000000000 H#
1+
#90000
0+
#95000
b1 o
1(
1d
1.
1+
#100000
0+
#105000
b10 o
b0 /
0.
1+
#110000
0+
#115000
b0 o
b111111100000000000000000000000 '
b111111100000000000000000000000 2
b111111100000000000000000000000 e
1&
1f
0(
0d
b1 /
1+
#120000
0+
#125000
0&
0f
b10 /
1+
#130000
0+
#135000
b100000000000000000000000000 w
b100000000000000000000000 *"
b10000000000000000000000000000000000000000000000000 z
b10000000000000000000000000000000000000000000000000 ,"
b10000000000000000000000000000000000000000000000000 ."
b10000000000000000000000000000000000000000000000000 /"
b10000000000000000000000000000000000000000000000000 0"
b0 q"
b0 4#
b0 6#
b111111100000000000000000000000 X
b111111100000000000000000000000 ?"
b10000000000000000000000000000000000000000000000000 1"
b0 t"
b0 $#
b0 &#
b0 s"
b0 ,#
b0 .#
b0 7#
1E"
b10000000000000000000000000000000000000000000000000 2"
b0 '#
b0 /#
b0 8#
1B"
b0 (#
b0 0#
b0 9#
1="
b0 -"
b0 )#
b0 1#
b0 :#
b1 r"
b1 5#
b1000000000000000000000000000 Z
b1000000000000000000000000000 u
b1000000000000000000000000000 )"
b0 {
b0 *#
b0 2#
b10000001 !#
b0 3#
0q
b10000001 a
b10000001 n"
0;"
b0 &"
b10000000 y
0p
b0 x"
b0 %#
b0 }"
b1 p"
b0 u"
b0 ~"
b0 @
b0 y"
b10000001 C
b10000001 ^"
b10000000 b"
b1111111 U
b1111111 H"
b10000000 K"
b10000000 P
b10000000 '"
b10000000 C"
b10000000 L"
b10000000 c"
b10000000 D#
b0 b
b0 o"
b0 ##
b0 +#
0s
0:"
b10000000 A#
b10 ,
b10 8
b1000000000000000000000000000000 *
b1000000000000000000000000000000 1
b1000000000000000000000000000000 @#
b11001000101010001100100011110100110100 G#
b1000000100000000000000000000000 F#
b10 J#
b1000000000000000000000000000000 I#
1+
#140000
0+
#145000
b1 o
1`
1(
1d
1.
1+
#150000
0+
#155000
b1 m"
b11000 j"
b100000000000000000000000 l"
b100000000000000000000000 k"
1E
0`
b0 /
0.
1+
#160000
0+
#165000
b10111 j"
b10000000000000000000000 l"
b1000000000000000000000000 k"
b1 /
1+
#170000
0+
#175000
b10110 j"
b1000000000000000000000 l"
b10000000000000000000000000 k"
b10 /
1+
#180000
0+
#185000
b10101 j"
b100000000000000000000 l"
b100000000000000000000000000 k"
b11 /
1+
#190000
0+
#195000
b10100 j"
b10000000000000000000 l"
b1000000000000000000000000000 k"
b100 /
1+
#200000
0+
#205000
b10011 j"
b1000000000000000000 l"
b10000000000000000000000000000 k"
b101 /
1+
#210000
0+
#215000
b10010 j"
b100000000000000000 l"
b100000000000000000000000000000 k"
b110 /
1+
#220000
0+
#225000
b10001 j"
b10000000000000000 l"
b1000000000000000000000000000000 k"
b111 /
1+
#230000
0+
#235000
b10000 j"
b1000000000000000 l"
b10000000000000000000000000000000 k"
b1000 /
1+
#240000
0+
#245000
b1111 j"
b100000000000000 l"
b100000000000000000000000000000000 k"
b1001 /
1+
#250000
0+
#255000
b1110 j"
b10000000000000 l"
b1000000000000000000000000000000000 k"
b1010 /
1+
#260000
0+
#265000
b1101 j"
b1000000000000 l"
b10000000000000000000000000000000000 k"
b1011 /
1+
#270000
0+
#275000
b1100 j"
b100000000000 l"
b100000000000000000000000000000000000 k"
b1100 /
1+
#280000
0+
#285000
b1011 j"
b10000000000 l"
b1000000000000000000000000000000000000 k"
b1101 /
1+
#290000
0+
#295000
b1010 j"
b1000000000 l"
b10000000000000000000000000000000000000 k"
b1110 /
1+
#300000
0+
#305000
b1001 j"
b100000000 l"
b100000000000000000000000000000000000000 k"
b1111 /
1+
#310000
0+
#315000
b1000 j"
b10000000 l"
b1000000000000000000000000000000000000000 k"
b10000 /
1+
#320000
0+
#325000
b111 j"
b1000000 l"
b10000000000000000000000000000000000000000 k"
b10001 /
1+
#330000
0+
#335000
b110 j"
b100000 l"
b100000000000000000000000000000000000000000 k"
b10010 /
1+
#340000
0+
#345000
b101 j"
b10000 l"
b1000000000000000000000000000000000000000000 k"
b10011 /
1+
#350000
0+
#355000
b100 j"
b1000 l"
b10000000000000000000000000000000000000000000 k"
b10100 /
1+
#360000
0+
#365000
b11 j"
b100 l"
b100000000000000000000000000000000000000000000 k"
b10101 /
1+
#370000
0+
#375000
b10 j"
b10 l"
b1000000000000000000000000000000000000000000000 k"
b10110 /
1+
#380000
0+
#385000
b1 j"
b1 l"
b10000000000000000000000000000000000000000000000 k"
b10111 /
1+
#390000
0+
#395000
b100000000000000000000000 q"
b100000000000000000000000 4#
b100000000000000000000000 6#
b100000000000000000000000 7#
b10000000000000000000000000 s"
b10000000000000000000000000 ,#
b10000000000000000000000000 .#
b100000000000000000000000 8#
b100000000000000000000000000 t"
b100000000000000000000000000 $#
b100000000000000000000000000 &#
b10000000000000000000000000 /#
b100000000000000000000000 9#
b100000000000000000000000000 '#
b10000000000000000000000000 0#
b100000000000000000000000 :#
b100000000000000000000000000 (#
b10000000000000000000000000 1#
b0 r"
b0 5#
b100000000000000000000000000 )#
b10000000000000000000000000 2#
b100000000000000000000000 3#
b10000001 @
b10000001 y"
b100000000000000000000000000 *#
b100000000000000000000000 }"
b111110000000 p"
b10000001 u"
b100000000000000000000000000 ~"
0;
b100000000000000000000000000 b
b100000000000000000000000000 o"
b100000000000000000000000000 ##
b100000000000000000000000000 +#
b100000000000000000000000000 B
b100000000000000000000000000 ]"
b0 j"
b0 l"
b100000000000000000000000000000000000000000000000 k"
b10000000000000000000000000000000000000000000000 i"
b11000 /
1+
#400000
0+
#405000
b10 m"
b11001 /
1+
#410000
0+
#415000
b0 m"
1D
0E
b11010 /
1+
#420000
0+
#425000
b10 o
0D
b11011 /
1+
#430000
0+
#435000
b0 o
b1000000100000000000000000000000 '
b1000000100000000000000000000000 2
b1000000100000000000000000000000 e
1&
1f
0(
0d
b11100 /
1+
#440000
0+
#445000
0&
0f
b11101 /
1+
#450000
0+
#455000
b10000000000000000000000000 w
b10000000000000000000000 *"
b1000000000000000000000000000000000000000000000000 z
b1000000000000000000000000000000000000000000000000 ,"
b1000000000000000000000000000000000000000000000000 ."
b1000000000000000000000000000000000000000000000000 /"
b1000000000000000000000000000000000000000000000000 0"
b1000000000000000000000000000000000000000000000000 1"
b0 q"
b0 4#
b0 6#
b1000000000000000000000000000000000000000000000000 2"
b0 s"
b0 ,#
b0 .#
b0 7#
b0 t"
b0 $#
b0 &#
b0 /#
b0 8#
0B"
b1 -"
b0 '#
b0 0#
b0 9#
0="
b1 {
b0 (#
b0 1#
b0 :#
b1 r"
b1 5#
b10000000000000000000000000 Z
b10000000000000000000000000 u
b10000000000000000000000000 )"
b1 &"
b10000001 [
b10000001 t
b10000001 $"
b0 )#
b0 2#
b0 3#
1q
b0 X
b0 ?"
1;"
1p
b0 *#
b0 @
b0 y"
b0 }"
b1 p"
b0 u"
b0 ~"
b10000000 !#
0E"
b10000010 C
b10000010 ^"
b10000001 d"
b10000000 U
b10000000 H"
b10000001 M"
b10000001 Q
b10000001 ("
b10000001 D"
b10000001 N"
b10000001 e"
b10000001 ?#
b0 b
b0 o"
b0 ##
b0 +#
b10000000 a
b10000000 n"
1s
1:"
b10000001 <#
b11 ,
b11 8
b1000000100000000000000000000000 )
b1000000100000000000000000000000 0
b1000000100000000000000000000000 ;#
b11010000101111001100100011110100110010 G#
b1000000000000000000000000000000 F#
b11 J#
b1000000100000000000000000000000 H#
1+
#460000
0+
#465000
b1 o
1_
1(
1d
1.
1+
#470000
0+
#475000
b1 Y"
b11010 V"
b100000000000000000000000 W"
b100000000000000000000000 U"
1W
0_
b0 /
0.
1+
#480000
0+
#485000
b10 Y"
b0 U"
b1 /
1+
#490000
0+
#495000
b100000000000000000000000 q"
b100000000000000000000000 4#
b100000000000000000000000 6#
b100000000000000000000000 7#
b100000000000000000000000 8#
b100000000000000000000000 9#
b100000000000000000000000 :#
b0 ?
b0 z"
b100000000000000000000000 3#
b100000000000000000000000 }"
b100000000000000000000000000 ~"
b100000000000000000000000000 t"
b100000000000000000000000000 $#
b100000000000000000000000000 &#
b1 s"
b1 ,#
b1 .#
b10000000000 '#
b1 /#
b1 0#
b100 (#
b1 1#
b0 r"
b0 5#
b100 )#
b1 2#
b1100111 @
b1100111 y"
b100 *#
b11001 x"
b11001 %#
b111110011010 p"
b1100111 u"
0;
b10 b
b10 o"
b10 ##
b10 +#
b10 S
b10 G"
b11 Y"
b11001 V"
b1 X"
b10 /
1+
#500000
0+
#505000
b1 Y"
b11 /
1+
#510000
0+
#515000
b10 Y"
b1100000000000000000000000 U"
b100 /
1+
#520000
0+
#525000
b10 s"
b10 ,#
b10 .#
b10 /#
b10 0#
b10 1#
b10 2#
b111110011001 p"
b1101000 u"
b11000 x"
b11000 %#
b1101000 @
b1101000 y"
b100 b
b100 o"
b100 ##
b100 +#
b100 S
b100 G"
b11 Y"
b11000 V"
b10 X"
b0 U"
b101 /
1+
#530000
0+
#535000
b1 Y"
b110 /
1+
#540000
0+
#545000
b10 Y"
b1100000000000000000000000 U"
b111 /
1+
#550000
0+
#555000
b100000000000000000000000 q"
b100000000000000000000000 4#
b100000000000000000000000 6#
b100000000000000000000000 7#
b100000000000000000000000 8#
b100000000000000000000000 9#
b100000000000000000000000 :#
b0 ?
b0 z"
b100000000000000000000000 3#
b100 s"
b100 ,#
b100 .#
b100000000000000000000000 }"
b100000000000000000000000000 ~"
b100 /#
b100000000000000000000000000 t"
b100000000000000000000000000 $#
b100000000000000000000000000 &#
b100 0#
b100 1#
b10000000000 (#
b10000000000 '#
b1000000 )#
b100 2#
b111110011000 p"
b1101001 u"
b10000 *#
b10111 x"
b10111 %#
b1101001 @
b1101001 y"
b1000 b
b1000 o"
b1000 ##
b1000 +#
b1000 S
b1000 G"
b11 Y"
b10111 V"
b100 X"
b0 U"
b1000 /
1+
#560000
0+
#565000
b1 Y"
b1001 /
1+
#570000
0+
#575000
b10 Y"
b1100000000000000000000000 U"
b1010 /
1+
#580000
0+
