fpu_tb.vcd
$date
	Sun Apr 19 19:39:42 2026
$end
$version
	Icarus Verilog
$end
$timescale
	1ps
$end
$scope module tb_fpu $end
$var wire 1 ! f_underflow $end
$var wire 1 " f_overflow $end
$var wire 1 # f_inv_op $end
$var wire 1 $ f_inexact $end
$var wire 1 % f_div_zero $end
$var wire 1 & done $end
$var wire 32 ' c [31:0] $end
$var wire 1 ( busy $end
$var reg 32 ) a [31:0] $end
$var reg 32 * b [31:0] $end
$var reg 1 + clock $end
$var reg 3 , op [2:0] $end
$var reg 1 - reset $end
$var reg 1 . start $end
$var integer 32 / fail_count [31:0] $end
$var integer 32 0 pass_count [31:0] $end
$scope module dut $end
$var wire 32 1 a [31:0] $end
$var wire 32 2 b [31:0] $end
$var wire 1 ( busy $end
$var wire 32 3 c [31:0] $end
$var wire 1 + clock $end
$var wire 1 & done $end
$var wire 1 % f_div_zero $end
$var wire 1 $ f_inexact $end
$var wire 1 # f_inv_op $end
$var wire 1 " f_overflow $end
$var wire 1 ! f_underflow $end
$var wire 1 4 flag_inv_op_comb $end
$var wire 1 5 is_inv_add $end
$var wire 1 6 is_inv_div $end
$var wire 1 7 is_inv_mul $end
$var wire 1 8 is_inv_sub $end
$var wire 3 9 op [2:0] $end
$var wire 1 - reset $end
$var wire 1 . start $end
$var wire 1 : sign_b $end
$var wire 1 ; sign_a $end
$var wire 1 < norm_underflow $end
$var wire 1 = norm_sign_out $end
$var wire 1 > norm_overflow $end
$var wire 1 ? norm_inexact $end
$var wire 23 @ norm_frac_out [22:0] $end
$var wire 8 A norm_exp_out [7:0] $end
$var wire 1 B mul_sign $end
$var wire 28 C mul_mant [27:0] $end
$var wire 10 D mul_exp [9:0] $end
$var wire 24 E mant_b [23:0] $end
$var wire 24 F mant_a [23:0] $end
$var wire 1 G is_zero_b $end
$var wire 1 H is_zero_a $end
$var wire 1 I is_subnorm_b $end
$var wire 1 J is_subnorm_a $end
$var wire 1 K is_nan_b $end
$var wire 1 L is_nan_a $end
$var wire 1 M is_inf_b $end
$var wire 1 N is_inf_a $end
$var wire 8 O exp_b [7:0] $end
$var wire 8 P exp_a [7:0] $end
$var wire 1 Q div_sign $end
$var wire 28 R div_mant [27:0] $end
$var wire 1 S div_f_div_zero $end
$var wire 10 T div_exp [9:0] $end
$var wire 1 U div_done_out $end
$var wire 1 V div_busy_out $end
$var wire 32 W cmp_res [31:0] $end
$var wire 1 X add_sign $end
$var wire 28 Y add_mant [27:0] $end
$var wire 8 Z add_exp [7:0] $end
$var parameter 2 [ COMPUTE $end
$var parameter 2 \ FINISH $end
$var parameter 2 ] IDLE $end
$var reg 1 ^ div_start_reg $end
$var reg 10 _ norm_exp_in [9:0] $end
$var reg 28 ` norm_mant_in [27:0] $end
$var reg 1 a norm_sign_in $end
$var reg 1 b reg_busy $end
$var reg 32 c reg_c [31:0] $end
$var reg 1 d reg_done $end
$var reg 1 e reg_f_div_zero $end
$var reg 1 f reg_f_inexact $end
$var reg 1 g reg_f_inv_op $end
$var reg 1 h reg_f_overflow $end
$var reg 1 i reg_f_underflow $end
$var reg 2 j state [1:0] $end
$scope module adder $end
$var wire 1 k a_is_larger $end
$var wire 1 l eff_sub $end
$var wire 1 m op_sub $end
$var wire 8 n res_exp [7:0] $end
$var wire 28 o res_mant [27:0] $end
$var wire 1 p sticky_bit $end
$var wire 28 q smaller_mant_ext [27:0] $end
$var wire 24 r smaller_mant [23:0] $end
$var wire 8 s smaller_exp [7:0] $end
$var wire 1 : sign_b $end
$var wire 1 ; sign_a $end
$var wire 51 t shifted_smaller [50:0] $end
$var wire 8 u shift_amt [7:0] $end
$var wire 1 v round_bit $end
$var wire 1 X res_sign $end
$var wire 24 w mant_b [23:0] $end
$var wire 24 x mant_a [23:0] $end
$var wire 28 y larger_mant_ext [27:0] $end
$var wire 24 z larger_mant [23:0] $end
$var wire 8 { larger_exp [7:0] $end
$var wire 1 | guard_bit $end
$var wire 8 } exp_diff [7:0] $end
$var wire 8 ~ exp_b [7:0] $end
$var wire 8 !" exp_a [7:0] $end
$var wire 28 "" calc_mant [27:0] $end
$var wire 24 #" aligned_smaller_mant [23:0] $end
$upscope $end
$scope module comparator $end
$var wire 1 $" a_is_nan $end
$var wire 1 %" any_nan $end
$var wire 1 &" b_is_nan $end
$var wire 1 '" both_neg_lt $end
$var wire 1 (" both_pos_lt $end
$var wire 1 )" both_zero $end
$var wire 1 *" diff_signs_lt $end
$var wire 1 +" is_slt $end
$var wire 1 ," mag_a_gt_mag_b $end
$var wire 1 -" mag_a_lt_mag_b $end
$var wire 1 ." raw_equal $end
$var wire 1 /" raw_lt $end
$var wire 1 : sign_b $end
$var wire 1 ; sign_a $end
$var wire 32 0" res_cmp [31:0] $end
$var wire 24 1" mant_b [23:0] $end
$var wire 24 2" mant_a [23:0] $end
$var wire 1 G is_zero_b $end
$var wire 1 H is_zero_a $end
$var wire 1 3" is_equal $end
$var wire 8 4" exp_b [7:0] $end
$var wire 8 5" exp_a [7:0] $end
$var wire 1 6" condition_met $end
$var wire 1 7" a_lt_b $end
$upscope $end
$scope module divider $end
$var wire 1 + clock $end
$var wire 1 Q res_sign $end
$var wire 1 - reset $end
$var wire 1 ^ start $end
$var wire 25 8" sub_resultado [24:0] $end
$var wire 1 9" sticky_bit $end
$var wire 1 : sign_b $end
$var wire 1 ; sign_a $end
$var wire 28 :" res_mant [27:0] $end
$var wire 10 ;" res_exp [9:0] $end
$var wire 26 <" quociente [25:0] $end
$var wire 24 =" mant_b [23:0] $end
$var wire 24 >" mant_a [23:0] $end
$var wire 1 S f_div_zero $end
$var wire 10 ?" exp_b_ext [9:0] $end
$var wire 8 @" exp_b [7:0] $end
$var wire 10 A" exp_a_ext [9:0] $end
$var wire 8 B" exp_a [7:0] $end
$var parameter 2 C" FIM $end
$var parameter 2 D" IDLE $end
$var parameter 2 E" SHIFT $end
$var reg 1 V busy $end
$var reg 5 F" count [4:0] $end
$var reg 50 G" dividendo_reg [49:0] $end
$var reg 25 H" divisor_reg [24:0] $end
$var reg 1 U done $end
$var reg 2 I" state [1:0] $end
$upscope $end
$scope module multiplier $end
$var wire 1 B res_sign $end
$var wire 1 J" sticky_bit $end
$var wire 1 : sign_b $end
$var wire 1 ; sign_a $end
$var wire 1 K" round_bit $end
$var wire 28 L" res_mant [27:0] $end
$var wire 10 M" res_exp [9:0] $end
$var wire 48 N" mult_result [47:0] $end
$var wire 24 O" mant_b [23:0] $end
$var wire 24 P" mant_a [23:0] $end
$var wire 1 Q" guard_bit $end
$var wire 10 R" exp_b_ext [9:0] $end
$var wire 8 S" exp_b [7:0] $end
$var wire 10 T" exp_a_ext [9:0] $end
$var wire 8 U" exp_a [7:0] $end
$upscope $end
$scope module normalizer $end
$var wire 10 V" exp_in [9:0] $end
$var wire 28 W" mant_in [27:0] $end
$var wire 1 a sign $end
$var reg 12 X" adj_exp [11:0] $end
$var reg 1 ? f_inexact $end
$var reg 1 > f_overflow $end
$var reg 1 < f_underflow $end
$var reg 1 Y" guard $end
$var reg 8 Z" res_exp [7:0] $end
$var reg 23 [" res_frac [22:0] $end
$var reg 1 = res_sign $end
$var reg 1 \" round $end
$var reg 1 ]" round_up $end
$var reg 25 ^" rounded_mant [24:0] $end
$var reg 5 _" shift_left [4:0] $end
$var reg 28 `" shifted_mant [27:0] $end
$var reg 1 a" sticky $end
$var integer 32 b" i [31:0] $end
$upscope $end
$scope module unp_a $end
$var wire 1 N is_inf $end
$var wire 1 L is_nan $end
$var wire 1 J is_subnormal $end
$var wire 1 H is_zero $end
$var wire 32 c" operand [31:0] $end
$var wire 1 ; sign $end
$var wire 24 d" mant [23:0] $end
$var wire 23 e" frac [22:0] $end
$var wire 8 f" exp [7:0] $end
$upscope $end
$scope module unp_b $end
$var wire 1 M is_inf $end
$var wire 1 K is_nan $end
$var wire 1 I is_subnormal $end
$var wire 1 G is_zero $end
$var wire 32 g" operand [31:0] $end
$var wire 1 : sign $end
$var wire 24 h" mant [23:0] $end
$var wire 23 i" frac [22:0] $end
$var wire 8 j" exp [7:0] $end
$upscope $end
$upscope $end
$scope task run_op $end
$var reg 1 k" chk_divz $end
$var reg 1 l" chk_inex $end
$var reg 1 m" chk_inv $end
$var reg 1 n" chk_ovf $end
$var reg 1 o" chk_udf $end
$var reg 32 p" expected [31:0] $end
$var reg 32 q" in_a [31:0] $end
$var reg 32 r" in_b [31:0] $end
$var reg 3 s" in_op [2:0] $end
$var reg 64 t" test_name [63:0] $end
$scope begin wait_done $end
$var integer 32 u" timeout [31:0] $end
$upscope $end
$upscope $end
$upscope $end
$enddefinitions $end
$comment Show the parameter values. $end
$dumpall
b1 E"
b0 D"
b10 C"
b0 ]
b10 \
b1 [
$end
#0
$dumpvars
bx u"
bx t"
bx s"
bx r"
bx q"
bx p"
xo"
xn"
xm"
xl"
xk"
b0 j"
b0 i"
b0 h"
b0 g"
b0 f"
b0 e"
b0 d"
b0 c"
b11111111111111111111111111111111 b"
0a"
bx00000000000000000000000000 `"
b0 _"
bx ^"
0]"
0\"
b0 ["
b0 Z"
0Y"
b0 X"
b0 W"
b0 V"
b0 U"
b0 T"
b0 S"
b0 R"
0Q"
b0 P"
b0 O"
b0 N"
b1110000001 M"
b0 L"
0K"
0J"
b0 I"
b0 H"
b0 G"
b0 F"
b0 B"
b0 A"
b0 @"
b0 ?"
b0 >"
b0 ="
b0 <"
b1111111 ;"
b0 :"
09"
b0 8"
07"
16"
b0 5"
b0 4"
13"
b0 2"
b0 1"
b111111100000000000000000000000 0"
0/"
1."
0-"
0,"
0+"
0*"
1)"
0("
0'"
0&"
0%"
0$"
b0 #"
b0 ""
b0 !"
b0 ~
b0 }
0|
b0 {
b0 z
b0 y
b0 x
b0 w
0v
b0 u
b0 t
b0 s
b0 r
b0 q
0p
b0 o
b0 n
0m
0l
0k
b0 j
0i
0h
0g
0f
0e
0d
b0 c
0b
0a
b0 `
b0 _
0^
b0 Z
b0 Y
0X
b111111100000000000000000000000 W
0V
0U
b1111111 T
1S
b0 R
0Q
b0 P
b0 O
0N
0M
0L
0K
0J
0I
1H
1G
b0 F
b0 E
b1110000001 D
b0 C
0B
b0 A
b0 @
0?
0>
0=
0<
0;
0:
b0 9
08
07
06
05
04
b0 3
b0 2
b0 1
b0 0
b0 /
0.
1-
b0 ,
0+
b0 *
b0 )
0(
b0 '
0&
0%
0$
0#
0"
0!
$end
#5000
1+
#10000
0+
#15000
1+
#20000
0+
#25000
1+
#30000
0-
0+
#35000
1+
#40000
b11000100101011001100010011110100110010001000000010000000100000 t"
0l"
0o"
0n"
0k"
0m"
b1000000000000000000000000000000 p"
b0 s"
b111111100000000000000000000000 r"
b111111100000000000000000000000 q"
0+
#45000
1+
#50000
b10000000 A
b10000000 Z"
b100000000000000000000000 ^"
b100000000000000000000000000 `"
b1000000000000000000000000000 `
b1000000000000000000000000000 W"
b1000000000000000000000000000 Y
b1000000000000000000000000000 o
b1000000000000000000000000000 ""
b100000000000000000000000000 q
b100000000000000000000000000 y
b10000000 X"
b100000000000000000000000 #"
b100000000000000000000000000 C
b100000000000000000000000000 L"
b100000000000000000000000 z
b1111111 _
b1111111 V"
0)"
b10000000000000000000000000000000000000000000000000 t
b100000000000000000000000 r
0G
b10000000000000000000000000000000000000000000000 N"
0S
b100000000000000000000000 E
b100000000000000000000000 w
b100000000000000000000000 1"
b100000000000000000000000 ="
b100000000000000000000000 O"
b100000000000000000000000 h"
b1111111 Z
b1111111 n
b1111111 {
0H
b100000000000000000000000 F
b100000000000000000000000 x
b100000000000000000000000 2"
b100000000000000000000000 >"
b100000000000000000000000 P"
b100000000000000000000000 d"
b0 }
b1111111 s
b1111111 R"
b1111111 ?"
b1111111 O
b1111111 ~
b1111111 4"
b1111111 @"
b1111111 S"
b1111111 j"
b1111111 D
b1111111 M"
b1111111 T"
b1111111 T
b1111111 ;"
b1111111 A"
b1111111 P
b1111111 !"
b1111111 5"
b1111111 B"
b1111111 U"
b1111111 f"
1.
b111111100000000000000000000000 *
b111111100000000000000000000000 2
b111111100000000000000000000000 g"
b111111100000000000000000000000 )
b111111100000000000000000000000 1
b111111100000000000000000000000 c"
0+
#55000
b1 j
1(
1b
1+
#60000
b0 u"
0.
0+
#65000
b10 j
1+
#70000
b1 u"
0+
#75000
b0 j
b1000000000000000000000000000000 '
b1000000000000000000000000000000 3
b1000000000000000000000000000000 c
1&
1d
0(
0b
1+
#80000
b1 0
b10 u"
0+
#85000
0&
0d
1+
#90000
b11000100101110001101010010101100110001001011100011010100100000 t"
b1000000010000000000000000000000 p"
b111111110000000000000000000000 r"
b111111110000000000000000000000 q"
0+
#95000
1+
#100000
b10000000000000000000000 @
b10000000000000000000000 ["
b110000000000000000000000 ^"
b110000000000000000000000000 `"
b10000000 X"
b10000000 A
b10000000 Z"
b1100000000000000000000000000 `
b1100000000000000000000000000 W"
b1100000000000000000000000000 Y
b1100000000000000000000000000 o
b1100000000000000000000000000 ""
b110000000000000000000000000 q
b110000000000000000000000000 y
b110000000000000000000000 #"
b110000000000000000000000 z
b1001000000000000000000000000 C
b1001000000000000000000000000 L"
b11000000000000000000000000000000000000000000000000 t
b110000000000000000000000 r
b110000000000000000000000 E
b110000000000000000000000 w
b110000000000000000000000 1"
b110000000000000000000000 ="
b110000000000000000000000 O"
b110000000000000000000000 h"
b100100000000000000000000000000000000000000000000 N"
b110000000000000000000000 F
b110000000000000000000000 x
b110000000000000000000000 2"
b110000000000000000000000 >"
b110000000000000000000000 P"
b110000000000000000000000 d"
b10000000000000000000000 i"
b10000000000000000000000 e"
1.
b111111110000000000000000000000 *
b111111110000000000000000000000 2
b111111110000000000000000000000 g"
b111111110000000000000000000000 )
b111111110000000000000000000000 1
b111111110000000000000000000000 c"
0+
#105000
b1 j
1(
1b
1+
#110000
b0 u"
0.
0+
#115000
b10 j
1+
#120000
b1 u"
0+
#125000
b0 j
b1000000010000000000000000000000 '
b1000000010000000000000000000000 3
b1000000010000000000000000000000 c
1&
1d
0(
0b
1+
#130000
b10 0
b10 u"
0+
#135000
0&
0d
1+
#140000
b11000100101101001100010011110100110000001000000010000000100000 t"
b0 p"
b10111111100000000000000000000000 r"
b111111100000000000000000000000 q"
0+
#145000
1+
#150000
b0 W
b0 0"
06"
03"
b111000000000000000000000 ^"
b111000000000000000000000000 `"
b1111111 X"
b0 @
b0 ["
b0 A
b0 Z"
0=
0."
b0 `
b0 W"
0a
b100000000000000000000000000 q
0X
b0 Y
b0 o
b0 ""
b100000000000000000000000000 y
b100000000000000000000000 #"
1l
b100000000000000000000000 z
b100000000000000000000000000 C
b100000000000000000000000000 L"
b10000000000000000000000000000000000000000000000000 t
b100000000000000000000000 r
1B
1Q
b100000000000000000000000 E
b100000000000000000000000 w
b100000000000000000000000 1"
b100000000000000000000000 ="
b100000000000000000000000 O"
b100000000000000000000000 h"
b10000000000000000000000000000000000000000000000 N"
b100000000000000000000000 F
b100000000000000000000000 x
b100000000000000000000000 2"
b100000000000000000000000 >"
b100000000000000000000000 P"
b100000000000000000000000 d"
1:
b0 i"
b0 e"
1.
b10111111100000000000000000000000 *
b10111111100000000000000000000000 2
b10111111100000000000000000000000 g"
b111111100000000000000000000000 )
b111111100000000000000000000000 1
b111111100000000000000000000000 c"
0+
#155000
b1 j
1(
1b
1+
#160000
b0 u"
0.
0+
#165000
b10 j
1+
#170000
b1 u"
0+
#175000
b0 j
b0 '
b0 3
b0 c
1&
1d
0(
0b
1+
#180000
b11 0
b10 u"
0+
#185000
0&
0d
1+
#190000
b10110100110001001011100011010100101011001100010010000000100000 t"
b10111111000000000000000000000000 p"
b111111100000000000000000000000 r"
b10111111110000000000000000000000 q"
0+
#195000
1+
#200000
b11111111111111111111111111111111 b"
b1 _"
17"
1/"
1=
b110000000000000000000000000 y
1a
1X
b1111110 A
b1111110 Z"
b100000000000000000000000 ^"
b1111110 X"
b100000000000000000000000000 `"
b100000000000000000000000000 q
b110000000000000000000000 z
1*"
b10000000000000000000000000 `
b10000000000000000000000000 W"
1,"
b100000000000000000000000 #"
1k
b10000000000000000000000000 Y
b10000000000000000000000000 o
b10000000000000000000000000 ""
b110000000000000000000000000 C
b110000000000000000000000000 L"
b10000000000000000000000000000000000000000000000000 t
b100000000000000000000000 r
1l
b11000000000000000000000000000000000000000000000 N"
b110000000000000000000000 F
b110000000000000000000000 x
b110000000000000000000000 2"
b110000000000000000000000 >"
b110000000000000000000000 P"
b110000000000000000000000 d"
0:
1;
b10000000000000000000000 e"
1.
b111111100000000000000000000000 *
b111111100000000000000000000000 2
b111111100000000000000000000000 g"
b10111111110000000000000000000000 )
b10111111110000000000000000000000 1
b10111111110000000000000000000000 c"
0+
#205000
b1 j
1(
1b
1+
#210000
b0 u"
0.
0+
#215000
b10 j
1+
#220000
b1 u"
0+
#225000
b0 j
b10111111000000000000000000000000 '
b10111111000000000000000000000000 3
b10111111000000000000000000000000 c
1&
1d
0(
0b
1+
#230000
b100 0
b10 u"
0+
#235000
0&
0d
1+
#240000
b11001100101101001100010011110100110010001000000010000000100000 t"
b1000000000000000000000000000000 p"
b1 s"
b1000000010000000000000000000000 q"
0+
#245000
1+
#250000
07"
0/"
b0 @
b0 ["
b100000000000000000000000 ^"
b100000000000000000000000000 `"
0=
b10000000000000000000000000 q
b100000000000000000000000000 `
b100000000000000000000000000 W"
0a
b10000000000000000000000 #"
b11111111111111111111111111111111 b"
b10000000 X"
b0 _"
b10000000 A
b10000000 Z"
b0 W
b0 0"
0*"
0X
b100000000000000000000000000 Y
b100000000000000000000000000 o
b100000000000000000000000000 ""
b1000000000000000000000000000000000000000000000000 t
b1 u
b10000000 _
b10000000 V"
06"
0B
0Q
1l
b1 }
b10000000 Z
b10000000 n
b10000000 {
1m
1+"
0;
b10000000 D
b10000000 M"
b10000000 T"
b10000000 T
b10000000 ;"
b10000000 A"
b10000000 P
b10000000 !"
b10000000 5"
b10000000 B"
b10000000 U"
b10000000 f"
1.
b1 ,
b1 9
b1000000010000000000000000000000 )
b1000000010000000000000000000000 1
b1000000010000000000000000000000 c"
0+
#255000
b1 j
1(
1b
1+
#260000
b0 u"
0.
0+
#265000
b10 j
1+
#270000
b1 u"
0+
#275000
b0 j
b1000000000000000000000000000000 '
b1000000000000000000000000000000 3
b1000000000000000000000000000000 c
1&
1d
0(
0b
1+
#280000
b101 0
b10 u"
0+
#285000
0&
0d
1+
#290000
b11000100101101001100010011110100110000001000000010000000100000 t"
b0 p"
b111111100000000000000000000000 q"
0+
#295000
1+
#300000
b11111111111111111111111111111111 b"
b0 _"
0=
b100000000000000000000000000 q
b0 `
b0 W"
0a
13"
b0 Y
b0 o
b0 ""
b100000000000000000000000 #"
0X
1."
b100000000000000000000000000 y
b1111111 X"
b0 A
b0 Z"
b10000000000000000000000000000000000000000000000000 t
b0 u
b100000000000000000000000000 C
b100000000000000000000000000 L"
b100000000000000000000000 z
b1111111 _
b1111111 V"
0,"
b0 }
b1111111 Z
b1111111 n
b1111111 {
0k
b10000000000000000000000000000000000000000000000 N"
b100000000000000000000000 F
b100000000000000000000000 x
b100000000000000000000000 2"
b100000000000000000000000 >"
b100000000000000000000000 P"
b100000000000000000000000 d"
b1111111 D
b1111111 M"
b1111111 T"
b1111111 T
b1111111 ;"
b1111111 A"
b1111111 P
b1111111 !"
b1111111 5"
b1111111 B"
b1111111 U"
b1111111 f"
b0 e"
1.
b111111100000000000000000000000 )
b111111100000000000000000000000 1
b111111100000000000000000000000 c"
0+
#305000
b1 j
1(
1b
1+
#310000
b0 u"
0.
0+
#315000
b10 j
1+
#320000
b1 u"
0+
#325000
b0 j
b0 '
b0 3
b0 c
1&
1d
0(
0b
1+
#330000
b110 0
b10 u"
0+
#335000
0&
0d
1+
#340000
b11001000101010001100110011110100110110001000000010000000100000 t"
b1000000110000000000000000000000 p"
b10 s"
b1000000010000000000000000000000 r"
b1000000000000000000000000000000 q"
0+
#345000
1+
#350000
17"
1/"
1("
03"
b1010000000000000000000000000 Y
b1010000000000000000000000000 o
b1010000000000000000000000000 ""
b10000000000000000000000 @
b10000000000000000000000 ["
b110000000000000000000000 ^"
b110000000000000000000000000 `"
1-"
0."
b110000000000000000000000000 y
0l
b0 W
b0 0"
b110000000000000000000000000 C
b110000000000000000000000000 L"
b110000000000000000000000 z
b10000001 A
b10000001 Z"
b10000001 X"
06"
b10000000 Z
b10000000 n
b10000000 {
b11000000000000000000000000000000000000000000000 N"
b110000000000000000000000 E
b110000000000000000000000 w
b110000000000000000000000 1"
b110000000000000000000000 ="
b110000000000000000000000 O"
b110000000000000000000000 h"
b0 }
b10000000 s
b110000000000000000000000000 `
b110000000000000000000000000 W"
b10000001 _
b10000001 V"
0m
0+"
b10000000 R"
b10000000 ?"
b10000000 O
b10000000 ~
b10000000 4"
b10000000 @"
b10000000 S"
b10000000 j"
b10000000000000000000000 i"
b10000001 D
b10000001 M"
b10000000 T"
b1111111 T
b1111111 ;"
b10000000 A"
b10000000 P
b10000000 !"
b10000000 5"
b10000000 B"
b10000000 U"
b10000000 f"
1.
b10 ,
b10 9
b1000000010000000000000000000000 *
b1000000010000000000000000000000 2
b1000000010000000000000000000000 g"
b1000000000000000000000000000000 )
b1000000000000000000000000000000 1
b1000000000000000000000000000000 c"
0+
#355000
b1 j
1(
1b
1+
#360000
b0 u"
0.
0+
#365000
b10 j
1+
#370000
b1 u"
0+
#375000
b0 j
b1000000110000000000000000000000 '
b1000000110000000000000000000000 3
b1000000110000000000000000000000 c
1&
1d
0(
0b
1+
#380000
b111 0
b10 u"
0+
#385000
0&
0d
1+
#390000
b11000100101010001100010011110100110001001000000010000000100000 t"
b111111100000000000000000000000 p"
b111111100000000000000000000000 r"
b111111100000000000000000000000 q"
0+
#395000
1+
#400000
07"
0/"
b111111100000000000000000000000 W
b111111100000000000000000000000 0"
16"
0("
13"
b1000000000000000000000000000 Y
b1000000000000000000000000000 o
b1000000000000000000000000000 ""
b100000000000000000000000 ^"
b100000000000000000000000000 `"
0-"
1."
b100000000000000000000000000 y
b100000000000000000000000000 `
b100000000000000000000000000 W"
b100000000000000000000000000 C
b100000000000000000000000000 L"
b100000000000000000000000 z
b1111111 X"
b0 @
b0 ["
b1111111 A
b1111111 Z"
b1111111 Z
b1111111 n
b1111111 {
b10000000000000000000000000000000000000000000000 N"
b100000000000000000000000 E
b100000000000000000000000 w
b100000000000000000000000 1"
b100000000000000000000000 ="
b100000000000000000000000 O"
b100000000000000000000000 h"
b1111111 _
b1111111 V"
b0 }
b1111111 s
b1111111 R"
b1111111 ?"
b1111111 O
b1111111 ~
b1111111 4"
b1111111 @"
b1111111 S"
b1111111 j"
b0 i"
b1111111 D
b1111111 M"
b1111111 T"
b1111111 T
b1111111 ;"
b1111111 A"
b1111111 P
b1111111 !"
b1111111 5"
b1111111 B"
b1111111 U"
b1111111 f"
1.
b111111100000000000000000000000 *
b111111100000000000000000000000 2
b111111100000000000000000000000 g"
b111111100000000000000000000000 )
b111111100000000000000000000000 1
b111111100000000000000000000000 c"
0+
#405000
b1 j
1(
1b
1+
#410000
b0 u"
0.
0+
#415000
b10 j
1+
#420000
b1 u"
0+
#425000
b0 j
b111111100000000000000000000000 '
b111111100000000000000000000000 3
b111111100000000000000000000000 c
1&
1d
0(
0b
1+
#430000
b1000 0
b10 u"
0+
#435000
0&
0d
1+
#440000
b10110100110010001010100011001100111101001011010011011000100000 t"
b11000000110000000000000000000000 p"
b1000000010000000000000000000000 r"
b11000000000000000000000000000000 q"
0+
#445000
1+
#450000
b0 W
b0 0"
06"
17"
b10000000000000000000000 @
b10000000000000000000000 ["
b110000000000000000000000 ^"
b110000000000000000000000000 `"
03"
1/"
b110000000000000000000000000 `
b110000000000000000000000000 W"
1-"
0."
b110000000000000000000000000 y
1=
b110000000000000000000000000 C
b110000000000000000000000000 L"
b110000000000000000000000 z
1a
1*"
b10000000000000000000000000 Y
b10000000000000000000000000 o
b10000000000000000000000000 ""
b10000001 X"
b10000001 A
b10000001 Z"
b10000000 Z
b10000000 n
b10000000 {
b11000000000000000000000000000000000000000000000 N"
b110000000000000000000000 E
b110000000000000000000000 w
b110000000000000000000000 1"
b110000000000000000000000 ="
b110000000000000000000000 O"
b110000000000000000000000 h"
1B
1Q
1l
b10000001 _
b10000001 V"
b0 }
b10000000 s
b10000000 R"
b10000000 ?"
b10000000 O
b10000000 ~
b10000000 4"
b10000000 @"
b10000000 S"
b10000000 j"
b10000000000000000000000 i"
1;
b10000001 D
b10000001 M"
b10000000 T"
b1111111 T
b1111111 ;"
b10000000 A"
b10000000 P
b10000000 !"
b10000000 5"
b10000000 B"
b10000000 U"
b10000000 f"
1.
b1000000010000000000000000000000 *
b1000000010000000000000000000000 2
b1000000010000000000000000000000 g"
b11000000000000000000000000000000 )
b11000000000000000000000000000000 1
b11000000000000000000000000000000 c"
0+
#455000
b1 j
1(
1b
1+
#460000
b0 u"
0.
0+
#465000
b10 j
1+
#470000
b1 u"
0+
#475000
b0 j
b11000000110000000000000000000000 '
b11000000110000000000000000000000 3
b11000000110000000000000000000000 c
1&
1d
0(
0b
1+
#480000
b1001 0
b10 u"
0+
#485000
0&
0d
1+
#490000
b10111000110101001010100010111000110101001000000010000000100000 t"
b111110100000000000000000000000 p"
b111111000000000000000000000000 r"
b111111000000000000000000000000 q"
0+
#495000
1+
#500000
b111111100000000000000000000000 W
b111111100000000000000000000000 0"
16"
07"
b100000000000000000000000 ^"
b100000000000000000000000000 `"
13"
0/"
b100000000000000000000000000 `
b100000000000000000000000000 W"
0-"
1."
b100000000000000000000000000 y
0=
0("
b100000000000000000000000000 C
b100000000000000000000000000 L"
b100000000000000000000000 z
0a
0*"
b1000000000000000000000000000 Y
b1000000000000000000000000000 o
b1000000000000000000000000000 ""
b1111101 X"
b0 @
b0 ["
b1111101 A
b1111101 Z"
b1111110 Z
b1111110 n
b1111110 {
b10000000000000000000000000000000000000000000000 N"
b100000000000000000000000 E
b100000000000000000000000 w
b100000000000000000000000 1"
b100000000000000000000000 ="
b100000000000000000000000 O"
b100000000000000000000000 h"
0B
0Q
0l
b1111101 _
b1111101 V"
b0 }
b1111110 s
b1111110 R"
b1111110 ?"
b1111110 O
b1111110 ~
b1111110 4"
b1111110 @"
b1111110 S"
b1111110 j"
b0 i"
0;
b1111101 D
b1111101 M"
b1111110 T"
b1111111 T
b1111111 ;"
b1111110 A"
b1111110 P
b1111110 !"
b1111110 5"
b1111110 B"
b1111110 U"
b1111110 f"
1.
b111111000000000000000000000000 *
b111111000000000000000000000000 2
b111111000000000000000000000000 g"
b111111000000000000000000000000 )
b111111000000000000000000000000 1
b111111000000000000000000000000 c"
0+
#505000
b1 j
1(
1b
1+
#510000
b0 u"
0.
0+
#515000
b10 j
1+
#520000
b1 u"
0+
#525000
b0 j
b111110100000000000000000000000 '
b111110100000000000000000000000 3
b111110100000000000000000000000 c
1&
1d
0(
0b
1+
#530000
b1010 0
b10 u"
0+
#535000
0&
0d
1+
#540000
b11011000101111001100100011110100110011001000000010000000100000 t"
b1000000010000000000000000000000 p"
b11 s"
b1000000000000000000000000000000 r"
b1000000110000000000000000000000 q"
0+
#545000
1+
#550000
b10000000000000000000000000 q
03"
b100000000000000000000000000 Y
b100000000000000000000000000 o
b100000000000000000000000000 ""
b10000000000000000000000 #"
b110000000000000000000000000 y
0."
1l
b0 W
b0 0"
b1000000000000000000000000000000000000000000000000 t
b1 u
b110000000000000000000000 z
b110000000000000000000000000 C
b110000000000000000000000000 L"
b10000000 X"
b0 A
b0 Z"
06"
b10000001 Z
b10000001 n
b10000001 {
1,"
b1 }
b10000000 s
1k
b11000000000000000000000000000000000000000000000 N"
b110000000000000000000000 F
b110000000000000000000000 x
b110000000000000000000000 2"
b110000000000000000000000 >"
b110000000000000000000000 P"
b110000000000000000000000 d"
b0 `
b0 W"
b10000000 _
b10000000 V"
1m
1+"
b10000000 R"
b10000000 ?"
b10000000 O
b10000000 ~
b10000000 4"
b10000000 @"
b10000000 S"
b10000000 j"
b10000010 D
b10000010 M"
b10000001 T"
b10000000 T
b10000000 ;"
b10000001 A"
b10000001 P
b10000001 !"
b10000001 5"
b10000001 B"
b10000001 U"
b10000001 f"
b10000000000000000000000 e"
1.
b11 ,
b11 9
b1000000000000000000000000000000 *
b1000000000000000000000000000000 2
b1000000000000000000000000000000 g"
b1000000110000000000000000000000 )
b1000000110000000000000000000000 1
b1000000110000000000000000000000 c"
0+
#555000
b1 j
1^
1(
1b
1+
#560000
b0 u"
0.
0+
#565000
b1100110 A
b1100110 Z"
b1100110 X"
b11111111111111111111111111111111 b"
b11010 _"
b1 `
b1 W"
b1 R
b1 :"
19"
0^
b1 I"
b11010 F"
b10000000000000000000000 8"
b100000000000000000000000 H"
b1100000000000000000000000000000000000000000000000 G"
1V
1+
#570000
b1 u"
0+
#575000
b10000000000000000000000 @
b10000000000000000000000 ["
b110000000000000000000000 ^"
b110000000000000000000000000 `"
b11111111111111111111111111111111 b"
b1100111 X"
b11001 _"
b1100111 A
b1100111 Z"
b11 `
b11 W"
b11 R
b11 :"
b0 8"
b1 <"
b11001 F"
b1000000000000000000000000000000000000000000000001 G"
1+
#580000
b10 u"
0+
#585000
b11111111111111111111111111111111 b"
b1101000 X"
b11000 _"
b10000000000000000000000 @
b10000000000000000000000 ["
b1101000 A
b1101000 Z"
b110 `
b110 W"
b110 R
b110 :"
b1100000000000000000000000 8"
09"
b11 <"
b11000 F"
b11 G"
1+
#590000
b11 u"
0+
#595000
b11111111111111111111111111111111 b"
b1101001 X"
b10111 _"
b10000000000000000000000 @
b10000000000000000000000 ["
b1101001 A
b1101001 Z"
b1100 `
b1100 W"
b1100 R
b1100 :"
b110 <"
b10111 F"
b110 G"
1+
#600000
b100 u"
0+
