fpu_waveforms.vcd
$date
	Sun Apr 19 19:19:24 2026
$end
$version
	Icarus Verilog
$end
$timescale
	1ps
$end
$scope module fpu_tb $end
$var wire 1 ! f_underflow $end
$var wire 1 " f_overflow $end
$var wire 1 # f_inv_op $end
$var wire 1 $ f_inexact $end
$var wire 1 % f_div_zero $end
$var wire 1 & done $end
$var wire 32 ' c [31:0] $end
$var wire 1 ( busy $end
$var reg 32 ) a [31:0] $end
$var reg 32 * b [31:0] $end
$var reg 1 + clock $end
$var reg 3 , op [2:0] $end
$var reg 1 - reset $end
$var reg 1 . start $end
$scope module uut $end
$var wire 32 / a [31:0] $end
$var wire 32 0 b [31:0] $end
$var wire 1 ( busy $end
$var wire 32 1 c [31:0] $end
$var wire 1 + clock $end
$var wire 1 & done $end
$var wire 1 % f_div_zero $end
$var wire 1 $ f_inexact $end
$var wire 1 # f_inv_op $end
$var wire 1 " f_overflow $end
$var wire 1 ! f_underflow $end
$var wire 1 2 flag_inv_op_comb $end
$var wire 1 3 is_inv_add $end
$var wire 1 4 is_inv_div $end
$var wire 1 5 is_inv_mul $end
$var wire 1 6 is_inv_sub $end
$var wire 3 7 op [2:0] $end
$var wire 1 - reset $end
$var wire 1 . start $end
$var wire 1 8 sign_b $end
$var wire 1 9 sign_a $end
$var wire 1 : norm_underflow $end
$var wire 1 ; norm_sign_out $end
$var wire 1 < norm_overflow $end
$var wire 1 = norm_inexact $end
$var wire 23 > norm_frac_out [22:0] $end
$var wire 8 ? norm_exp_out [7:0] $end
$var wire 1 @ mul_sign $end
$var wire 28 A mul_mant [27:0] $end
$var wire 10 B mul_exp [9:0] $end
$var wire 24 C mant_b [23:0] $end
$var wire 24 D mant_a [23:0] $end
$var wire 1 E is_zero_b $end
$var wire 1 F is_zero_a $end
$var wire 1 G is_subnorm_b $end
$var wire 1 H is_subnorm_a $end
$var wire 1 I is_nan_b $end
$var wire 1 J is_nan_a $end
$var wire 1 K is_inf_b $end
$var wire 1 L is_inf_a $end
$var wire 8 M exp_b [7:0] $end
$var wire 8 N exp_a [7:0] $end
$var wire 1 O div_sign $end
$var wire 28 P div_mant [27:0] $end
$var wire 1 Q div_f_div_zero $end
$var wire 10 R div_exp [9:0] $end
$var wire 1 S div_done_out $end
$var wire 1 T div_busy_out $end
$var wire 32 U cmp_res [31:0] $end
$var wire 1 V add_sign $end
$var wire 28 W add_mant [27:0] $end
$var wire 8 X add_exp [7:0] $end
$var parameter 2 Y COMPUTE $end
$var parameter 2 Z FINISH $end
$var parameter 2 [ IDLE $end
$var reg 1 \ div_start_reg $end
$var reg 10 ] norm_exp_in [9:0] $end
$var reg 28 ^ norm_mant_in [27:0] $end
$var reg 1 _ norm_sign_in $end
$var reg 1 ` reg_busy $end
$var reg 32 a reg_c [31:0] $end
$var reg 1 b reg_done $end
$var reg 1 c reg_f_div_zero $end
$var reg 1 d reg_f_inexact $end
$var reg 1 e reg_f_inv_op $end
$var reg 1 f reg_f_overflow $end
$var reg 1 g reg_f_underflow $end
$var reg 2 h state [1:0] $end
$scope module adder $end
$var wire 1 i a_is_larger $end
$var wire 1 j eff_sub $end
$var wire 1 k op_sub $end
$var wire 8 l res_exp [7:0] $end
$var wire 28 m res_mant [27:0] $end
$var wire 1 n sticky_bit $end
$var wire 28 o smaller_mant_ext [27:0] $end
$var wire 24 p smaller_mant [23:0] $end
$var wire 8 q smaller_exp [7:0] $end
$var wire 1 8 sign_b $end
$var wire 1 9 sign_a $end
$var wire 51 r shifted_smaller [50:0] $end
$var wire 8 s shift_amt [7:0] $end
$var wire 1 t round_bit $end
$var wire 1 V res_sign $end
$var wire 24 u mant_b [23:0] $end
$var wire 24 v mant_a [23:0] $end
$var wire 28 w larger_mant_ext [27:0] $end
$var wire 24 x larger_mant [23:0] $end
$var wire 8 y larger_exp [7:0] $end
$var wire 1 z guard_bit $end
$var wire 8 { exp_diff [7:0] $end
$var wire 8 | exp_b [7:0] $end
$var wire 8 } exp_a [7:0] $end
$var wire 28 ~ calc_mant [27:0] $end
$var wire 24 !" aligned_smaller_mant [23:0] $end
$upscope $end
$scope module comparator $end
$var wire 1 "" a_lt_b $end
$var wire 1 #" both_neg_lt $end
$var wire 1 $" both_pos_lt $end
$var wire 1 %" both_zero $end
$var wire 1 &" diff_signs_lt $end
$var wire 1 '" is_equal $end
$var wire 1 (" is_slt $end
$var wire 1 )" mag_a_gt_mag_b $end
$var wire 1 *" mag_a_lt_mag_b $end
$var wire 1 8 sign_b $end
$var wire 1 9 sign_a $end
$var wire 32 +" res_cmp [31:0] $end
$var wire 24 ," mant_b [23:0] $end
$var wire 24 -" mant_a [23:0] $end
$var wire 1 E is_zero_b $end
$var wire 1 F is_zero_a $end
$var wire 8 ." exp_b [7:0] $end
$var wire 8 /" exp_a [7:0] $end
$var wire 1 0" condition_met $end
$upscope $end
$scope module divider $end
$var wire 1 + clock $end
$var wire 1 O res_sign $end
$var wire 1 - reset $end
$var wire 1 \ start $end
$var wire 25 1" sub_resultado [24:0] $end
$var wire 1 2" sticky_bit $end
$var wire 1 8 sign_b $end
$var wire 1 9 sign_a $end
$var wire 28 3" res_mant [27:0] $end
$var wire 10 4" res_exp [9:0] $end
$var wire 26 5" quociente [25:0] $end
$var wire 24 6" mant_b [23:0] $end
$var wire 24 7" mant_a [23:0] $end
$var wire 1 Q f_div_zero $end
$var wire 10 8" exp_b_ext [9:0] $end
$var wire 8 9" exp_b [7:0] $end
$var wire 10 :" exp_a_ext [9:0] $end
$var wire 8 ;" exp_a [7:0] $end
$var parameter 2 <" FIM $end
$var parameter 2 =" IDLE $end
$var parameter 2 >" SHIFT $end
$var reg 1 T busy $end
$var reg 5 ?" count [4:0] $end
$var reg 50 @" dividendo_reg [49:0] $end
$var reg 25 A" divisor_reg [24:0] $end
$var reg 1 S done $end
$var reg 2 B" state [1:0] $end
$upscope $end
$scope module multiplier $end
$var wire 1 @ res_sign $end
$var wire 1 C" sticky_bit $end
$var wire 1 8 sign_b $end
$var wire 1 9 sign_a $end
$var wire 1 D" round_bit $end
$var wire 28 E" res_mant [27:0] $end
$var wire 10 F" res_exp [9:0] $end
$var wire 48 G" mult_result [47:0] $end
$var wire 24 H" mant_b [23:0] $end
$var wire 24 I" mant_a [23:0] $end
$var wire 1 J" guard_bit $end
$var wire 10 K" exp_b_ext [9:0] $end
$var wire 8 L" exp_b [7:0] $end
$var wire 10 M" exp_a_ext [9:0] $end
$var wire 8 N" exp_a [7:0] $end
$upscope $end
$scope module normalizer $end
$var wire 10 O" exp_in [9:0] $end
$var wire 28 P" mant_in [27:0] $end
$var wire 1 _ sign $end
$var reg 12 Q" adj_exp [11:0] $end
$var reg 1 = f_inexact $end
$var reg 1 < f_overflow $end
$var reg 1 : f_underflow $end
$var reg 1 R" guard $end
$var reg 8 S" res_exp [7:0] $end
$var reg 23 T" res_frac [22:0] $end
$var reg 1 ; res_sign $end
$var reg 1 U" round $end
$var reg 1 V" round_up $end
$var reg 25 W" rounded_mant [24:0] $end
$var reg 5 X" shift_left [4:0] $end
$var reg 28 Y" shifted_mant [27:0] $end
$var reg 1 Z" sticky $end
$var integer 32 [" i [31:0] $end
$upscope $end
$scope module unp_a $end
$var wire 1 L is_inf $end
$var wire 1 J is_nan $end
$var wire 1 H is_subnormal $end
$var wire 1 F is_zero $end
$var wire 32 \" operand [31:0] $end
$var wire 1 9 sign $end
$var wire 24 ]" mant [23:0] $end
$var wire 23 ^" frac [22:0] $end
$var wire 8 _" exp [7:0] $end
$upscope $end
$scope module unp_b $end
$var wire 1 K is_inf $end
$var wire 1 I is_nan $end
$var wire 1 G is_subnormal $end
$var wire 1 E is_zero $end
$var wire 32 `" operand [31:0] $end
$var wire 1 8 sign $end
$var wire 24 a" mant [23:0] $end
$var wire 23 b" frac [22:0] $end
$var wire 8 c" exp [7:0] $end
$upscope $end
$upscope $end
$scope task run_test $end
$var reg 112 d" test_name [112:1] $end
$var reg 32 e" val_a [31:0] $end
$var reg 32 f" val_b [31:0] $end
$var reg 3 g" val_op [2:0] $end
$upscope $end
$upscope $end
$enddefinitions $end
$comment Show the parameter values. $end
$dumpall
b1 >"
b0 ="
b10 <"
b0 [
b10 Z
b1 Y
$end
#0
$dumpvars
bx g"
bx f"
bx e"
bx d"
b0 c"
b0 b"
b0 a"
b0 `"
b0 _"
b0 ^"
b0 ]"
b0 \"
b11111111111111111111111111111111 ["
0Z"
bx00000000000000000000000000 Y"
b0 X"
bx W"
0V"
0U"
b0 T"
b0 S"
0R"
b0 Q"
b0 P"
b0 O"
b0 N"
b0 M"
b0 L"
b0 K"
0J"
b0 I"
b0 H"
b0 G"
b1110000001 F"
b0 E"
0D"
0C"
b0 B"
b0 A"
b0 @"
b0 ?"
b0 ;"
b0 :"
b0 9"
b0 8"
b0 7"
b0 6"
b0 5"
b1111111 4"
b0 3"
02"
b0 1"
10"
b0 /"
b0 ."
b0 -"
b0 ,"
b111111100000000000000000000000 +"
0*"
0)"
0("
1'"
0&"
1%"
0$"
0#"
0""
b0 !"
b0 ~
b0 }
b0 |
b0 {
0z
b0 y
b0 x
b0 w
b0 v
b0 u
0t
b0 s
b0 r
b0 q
b0 p
b0 o
0n
b0 m
b0 l
0k
0j
0i
b0 h
0g
0f
0e
0d
0c
0b
b0 a
0`
0_
b0 ^
b0 ]
0\
b0 X
b0 W
0V
b111111100000000000000000000000 U
0T
0S
b1111111 R
1Q
b0 P
0O
b0 N
b0 M
0L
0K
0J
0I
0H
0G
1F
1E
b0 D
b0 C
b1110000001 B
b0 A
0@
b0 ?
b0 >
0=
0<
0;
0:
09
08
b0 7
06
05
04
03
02
b0 1
b0 0
b0 /
0.
1-
b0 ,
0+
b0 *
b0 )
0(
b0 '
0&
0%
0$
0#
0"
0!
$end
#5000
1+
#10000
0+
#15000
1+
#20000
0+
0-
#25000
1+
#30000
0+
#35000
1+
#40000
12
b0 U
b0 +"
15
b100000000000000000000000000 W
b100000000000000000000000000 m
b100000000000000000000000000 ~
1""
00"
b100000000000000000000000000 w
0'"
0%"
b100000000000000000000000 x
1$"
b11011 s
b10000000 Q"
0E
1K
0Q
b100000000000000000000000 C
b100000000000000000000000 u
b100000000000000000000000 ,"
b100000000000000000000000 6"
b100000000000000000000000 H"
b100000000000000000000000 a"
1*"
b11111111 {
b11111111 X
b11111111 l
b11111111 y
b10000000 ]
b10000000 O"
b10000000 B
b10000000 F"
b11111111 K"
b1110000000 R
b1110000000 4"
b11111111 8"
b11111111 M
b11111111 |
b11111111 ."
b11111111 9"
b11111111 L"
b11111111 c"
0+
b10 ,
b10 7
b1111111100000000000000000000000 *
b1111111100000000000000000000000 0
b1111111100000000000000000000000 `"
b10010010100111001010110001110100010000000110000001000000010101000100000010010010110111001100110 d"
b10 g"
b1111111100000000000000000000000 f"
b0 e"
#45000
b1 h
1(
1`
1.
1+
#50000
0+
#55000
b10 h
0.
1+
#60000
0+
#65000
b0 h
b1111111110000000000000000000000 '
b1111111110000000000000000000000 1
b1111111110000000000000000000000 a
1#
1e
1&
1b
0(
0`
1+
#70000
0+
#75000
0&
0b
14
0""
b0 W
b0 m
b0 ~
0V
b0 w
1'"
1j
b0 U
b0 +"
12
1%"
b0 x
0$"
b0 s
b1111111 Q"
00"
1E
0K
1Q
b0 C
b0 u
b0 ,"
b0 6"
b0 H"
b0 a"
0*"
b0 {
b0 X
b0 l
b0 y
b1111111 ]
b1111111 O"
1k
1("
05
b1110000001 B
b1110000001 F"
b0 K"
b1111111 R
b1111111 4"
b0 8"
b0 M
b0 |
b0 ."
b0 9"
b0 L"
b0 c"
b11 ,
b11 7
b0 *
b0 0
b0 `"
b1001001010011100101011000111010001000000011000000100000001011110010000000110000 d"
b11 g"
b0 f"
1+
#80000
0+
#85000
b1 h
1\
1(
1`
1.
1+
#90000
0+
#95000
1S
0\
0.
1+
#100000
0+
#105000
b10 h
0S
1+
#110000
0+
#115000
b0 h
1%
1c
1&
1b
0(
0`
1+
#120000
0+
#125000
0&
0b
b100000000000000000000000000 o
16
b100000000000000000000000000 w
b100000000000000000000000 !"
b100000000000000000000000000 A
b100000000000000000000000000 E"
b100000000000000000000000 x
0%"
b10000000000000000000000000000000000000000000000000 r
b100000000000000000000000 p
b11111111 Q"
12
0E
1K
b10000000000000000000000000000000000000000000000 G"
0Q
b100000000000000000000000 C
b100000000000000000000000 u
b100000000000000000000000 ,"
b100000000000000000000000 6"
b100000000000000000000000 H"
b100000000000000000000000 a"
b11111111 X
b11111111 l
b11111111 y
0F
1L
b100000000000000000000000 D
b100000000000000000000000 v
b100000000000000000000000 -"
b100000000000000000000000 7"
b100000000000000000000000 I"
b100000000000000000000000 ]"
b0 {
b11111111 q
b11111111 ]
b11111111 O"
04
b11111111 K"
b11111111 8"
b11111111 M
b11111111 |
b11111111 ."
b11111111 9"
b11111111 L"
b11111111 c"
b101111111 B
b101111111 F"
b11111111 M"
b1111111 R
b1111111 4"
b11111111 :"
b11111111 N
b11111111 }
b11111111 /"
b11111111 ;"
b11111111 N"
b11111111 _"
b1 ,
b1 7
b1111111100000000000000000000000 *
b1111111100000000000000000000000 0
b1111111100000000000000000000000 `"
b1111111100000000000000000000000 )
b1111111100000000000000000000000 /
b1111111100000000000000000000000 \"
b100100101001110010101100011101000100000010010010110111001100110001000000010110100100000010010010110111001100110 d"
b1 g"
b1111111100000000000000000000000 f"
b1111111100000000000000000000000 e"
1+
#130000
0+
#135000
b1 h
1(
1`
1.
1+
#140000
0+
#145000
b10 h
0.
1+
#150000
0+
#155000
b0 h
0%
0c
1&
1b
0(
0`
1+
#160000
0+
#165000
0&
0b
1=
1Z"
b11111111 ?
b11111111 S"
1<
b110000000000000000000000 W"
b11111111 Q"
b110000000000000000000000001 Y"
b1 o
b110000000000000000000000001 ^
b110000000000000000000000001 P"
b0 !"
1n
b110000000000000000000000001 W
b110000000000000000000000001 m
b110000000000000000000000001 ~
b110000000000000000000000000 w
b10000000000000000000000 r
b11011 s
0'"
0j
b0 U
b0 +"
06
b110000000000000000000000 x
b10000000 {
b1111111 q
b110000000000000000000000000 A
b110000000000000000000000000 E"
00"
0K
1)"
1i
0L
1J
b11000000000000000000000000000000000000000000000 G"
b110000000000000000000000 D
b110000000000000000000000 v
b110000000000000000000000 -"
b110000000000000000000000 7"
b110000000000000000000000 I"
b110000000000000000000000 ]"
0k
0("
b11111111 B
b11111111 F"
b1111111 K"
b11111111 R
b11111111 4"
b1111111 8"
b1111111 M
b1111111 |
b1111111 ."
b1111111 9"
b1111111 L"
b1111111 c"
b10000000000000000000000 ^"
b0 ,
b0 7
b111111100000000000000000000000 *
b111111100000000000000000000000 0
b111111100000000000000000000000 `"
b1111111110000000000000000000000 )
b1111111110000000000000000000000 /
b1111111110000000000000000000000 \"
b100100101001110010101100011101000100000010011100110000101001110001000000010101100100000001100010010111000110000 d"
b0 g"
b111111100000000000000000000000 f"
b1111111110000000000000000000000 e"
1+
#170000
0+
#175000
b1 h
1(
1`
1.
1+
#180000
0+
#185000
b10 h
0.
1+
#190000
0+
#195000
b0 h
1&
1b
0(
0`
1+
#200000
0+
#205000
0&
0b
02
b0 o
b100000000000000000000000000 W
b100000000000000000000000000 m
b100000000000000000000000000 ~
0n
b100000000000000000000000000 w
1j
b0 r
b0 p
b0 A
b0 E"
b100000000000000000000000 x
b11111110 Q"
0=
0<
b0 ?
b0 S"
1E
1Q
b0 C
b0 u
b0 ,"
b0 6"
b0 H"
b0 a"
b0 q
b1111111 {
b1111111 X
b1111111 l
b1111111 y
0J
b0 G"
b100000000000000000000000 D
b100000000000000000000000 v
b100000000000000000000000 -"
b100000000000000000000000 7"
b100000000000000000000000 I"
b100000000000000000000000 ]"
b0 ^
b0 P"
b11111110 ]
b11111110 O"
1k
1("
b0 K"
b0 8"
b0 M
b0 |
b0 ."
b0 9"
b0 L"
b0 c"
b0 B
b0 F"
b1111111 M"
b11111110 R
b11111110 4"
b1111111 :"
b1111111 N
b1111111 }
b1111111 /"
b1111111 ;"
b1111111 N"
b1111111 _"
b0 ^"
b11 ,
b11 7
b0 *
b0 0
b0 `"
b111111100000000000000000000000 )
b111111100000000000000000000000 /
b111111100000000000000000000000 \"
b1000100010010010101011000110000001110100010000000110001001011100011000000100000001011110010000000110000 d"
b11 g"
b0 f"
b111111100000000000000000000000 e"
1+
#210000
0+
#215000
b1 h
1\
1(
1`
1.
1+
#220000
0+
#225000
0\
1S
0.
1+
#230000
0+
#235000
0S
b10 h
1+
#240000
0+
#245000
b0 h
b1111111100000000000000000000000 '
b1111111100000000000000000000000 1
b1111111100000000000000000000000 a
1%
1c
0#
0e
1&
1b
0(
0`
1+
#250000
0+
#255000
0&
0b
b11111111 ?
b11111111 S"
1<
b111111111111111111111111 W"
0Z"
b111111111111111111111111000 Y"
b1 o
b111111111111111111111111001 W
b111111111111111111111111001 m
b111111111111111111111111001 ~
b111111111111111111111111000 ^
b111111111111111111111111000 P"
1n
b111111111111111111111111000 w
0j
b111111111111111111111111000 A
b111111111111111111111111000 E"
b10000000000000000000000 r
b100000000000000000000000 p
b111111111111111111111111 x
b11111111 Q"
0E
b11111111111111111111111100000000000000000000000 G"
0Q
b100000000000000000000000 C
b100000000000000000000000 u
b100000000000000000000000 ,"
b100000000000000000000000 6"
b100000000000000000000000 H"
b100000000000000000000000 a"
b10000000 q
b1111110 {
b11111110 X
b11111110 l
b11111110 y
b111111111111111111111111 D
b111111111111111111111111 v
b111111111111111111111111 -"
b111111111111111111111111 7"
b111111111111111111111111 I"
b111111111111111111111111 ]"
b11111111 ]
b11111111 O"
0k
0("
b10000000 K"
b10000000 8"
b10000000 M
b10000000 |
b10000000 ."
b10000000 9"
b10000000 L"
b10000000 c"
b11111111 B
b11111111 F"
b11111110 M"
b11111101 R
b11111101 4"
b11111110 :"
b11111110 N
b11111110 }
b11111110 /"
b11111110 ;"
b11111110 N"
b11111110 _"
b11111111111111111111111 ^"
b10 ,
b10 7
b1000000000000000000000000000000 *
b1000000000000000000000000000000 0
b1000000000000000000000000000000 `"
b1111111011111111111111111111111 )
b1111111011111111111111111111111 /
b1111111011111111111111111111111 \"
b100111101010110010001100011101000100000010011010110000101111000001000000010101000100000001100100010111000110000 d"
b10 g"
b1000000000000000000000000000000 f"
b1111111011111111111111111111111 e"
1+
#260000
0+
#265000
b1 h
1(
1`
1.
1+
#270000
0+
#275000
b10 h
0.
1+
#280000
0+
#285000
b0 h
1"
1f
0%
0c
1&
1b
0(
0`
1+
#290000
0+
#295000
0&
0b
b111111100000000000000000000000 U
b111111100000000000000000000000 +"
b1111111111111111111111110000 W
b1111111111111111111111110000 m
b1111111111111111111111110000 ~
10"
b111111111111111111111111000 o
b111111111111111111111111 !"
1'"
0n
b0 s
1C"
b1111111111111111111111100001 A
b1111111111111111111111100001 E"
b11111111111111111111111100000000000000000000000000 r
b111111111111111111111111 p
b0 >
b0 T"
0=
0Z"
b111111111111111111111111000 Y"
b11111111 Q"
1<
b11111111 ?
b11111111 S"
0)"
b0 {
b11111110 q
0i
b111111111111111111111110000000000000000000000001 G"
b111111111111111111111111 C
b111111111111111111111111 u
b111111111111111111111111 ,"
b111111111111111111111111 6"
b111111111111111111111111 H"
b111111111111111111111111 a"
b1111111111111111111111110000 ^
b1111111111111111111111110000 P"
b11111110 ]
b11111110 O"
b101111101 B
b101111101 F"
b11111110 K"
b1111111 R
b1111111 4"
b11111110 8"
b11111110 M
b11111110 |
b11111110 ."
b11111110 9"
b11111110 L"
b11111110 c"
b11111111111111111111111 b"
b0 ,
b0 7
b1111111011111111111111111111111 *
b1111111011111111111111111111111 0
b1111111011111111111111111111111 `"
b100111101010110010001100011101000100000010011010110000101111000001000000010101100100000010011010110000101111000 d"
b0 g"
b1111111011111111111111111111111 f"
1+
#300000
0+
#305000
b1 h
1(
1`
1.
1+
#310000
0+
#315000
b10 h
0.
1+
#320000
0+
#325000
b0 h
1&
1b
0(
0`
1+
#330000
0+
#335000
0&
0b
1""
b1 o
b11111111111111111111111111 W
b11111111111111111111111111 m
b11111111111111111111111111 ~
1V
b100000000000000000000000000 w
1n
0'"
b0 !"
1j
b111111100000000000000000000000 U
b111111100000000000000000000000 +"
b100000000000000000000000 x
1$"
b11011 s
0C"
b100000000000000000000000000 A
b100000000000000000000000000 E"
b10000000000000000000000 r
b100000000000000000000000 p
b0 Q"
0<
b0 ?
b0 S"
10"
b10000000 X
b10000000 l
b10000000 y
b100000000000000000000000 C
b100000000000000000000000 u
b100000000000000000000000 ,"
b100000000000000000000000 6"
b100000000000000000000000 H"
b100000000000000000000000 a"
1*"
b1111111 {
b1 q
b10000000000000000000000000000000000000000000000 G"
b100000000000000000000000 D
b100000000000000000000000 v
b100000000000000000000000 -"
b100000000000000000000000 7"
b100000000000000000000000 I"
b100000000000000000000000 ]"
b0 ^
b0 P"
b0 ]
b0 O"
1k
1("
b10000000 K"
b10000000 8"
b10000000 M
b10000000 |
b10000000 ."
b10000000 9"
b10000000 L"
b10000000 c"
b0 b"
b10 B
b10 F"
b1 M"
b0 R
b0 4"
b1 :"
b1 N
b1 }
b1 /"
b1 ;"
b1 N"
b1 _"
b0 ^"
b11 ,
b11 7
b1000000000000000000000000000000 *
b1000000000000000000000000000000 0
b1000000000000000000000000000000 `"
b100000000000000000000000 )
b100000000000000000000000 /
b100000000000000000000000 \"
b101010101001110010001100011101000100000010011010110100101101110001000000010111100100000001100100010111000110000 d"
b11 g"
b1000000000000000000000000000000 f"
b100000000000000000000000 e"
1+
#340000
0+
#345000
b1 h
1\
1(
1`
1.
1+
#350000
0+
#355000
1:
b100000000000000000000000 W"
b111111100110 Q"
b100000000000000000000000000 Y"
b11111111111111111111111111111111 ["
b11010 X"
b1 ^
b1 P"
b1 P
b1 3"
12"
b1 B"
b11010 ?"
b0 1"
b100000000000000000000000 A"
b1000000000000000000000000000000000000000000000000 @"
1T
0\
0.
1+
#360000
0+
#365000
b11111111111111111111111111111111 ["
b111111100111 Q"
b11001 X"
1:
b10 ^
b10 P"
b10 P
b10 3"
b1100000000000000000000000 1"
02"
b1 5"
b11001 ?"
b1 @"
1+
#370000
0+
#375000
b11111111111111111111111111111111 ["
b111111101000 Q"
b11000 X"
1:
b100 ^
b100 P"
b100 P
b100 3"
b10 5"
b11000 ?"
b10 @"
1+
#380000
0+
#385000
b11111111111111111111111111111111 ["
b111111101001 Q"
b10111 X"
1:
b1000 ^
b1000 P"
b1000 P
b1000 3"
b100 5"
b10111 ?"
b100 @"
1+
#390000
0+
#395000
b11111111111111111111111111111111 ["
b111111101010 Q"
b10110 X"
1:
b10000 ^
b10000 P"
b10000 P
b10000 3"
b1000 5"
b10110 ?"
b1000 @"
1+
#400000
0+
#405000
b11111111111111111111111111111111 ["
b111111101011 Q"
b10101 X"
1:
b100000 ^
b100000 P"
b100000 P
b100000 3"
b10000 5"
b10101 ?"
b10000 @"
1+
#410000
0+
#415000
b11111111111111111111111111111111 ["
b111111101100 Q"
b10100 X"
1:
b1000000 ^
b1000000 P"
b1000000 P
b1000000 3"
b100000 5"
b10100 ?"
b100000 @"
1+
#420000
0+
#425000
b11111111111111111111111111111111 ["
b111111101101 Q"
b10011 X"
1:
b10000000 ^
b10000000 P"
b10000000 P
b10000000 3"
b1000000 5"
b10011 ?"
b1000000 @"
1+
#430000
0+
#435000
b11111111111111111111111111111111 ["
b111111101110 Q"
b10010 X"
1:
b100000000 ^
b100000000 P"
b100000000 P
b100000000 3"
b10000000 5"
b10010 ?"
b10000000 @"
1+
#440000
0+
#445000
b11111111111111111111111111111111 ["
b111111101111 Q"
b10001 X"
1:
b1000000000 ^
b1000000000 P"
b1000000000 P
b1000000000 3"
b100000000 5"
b10001 ?"
b100000000 @"
1+
#450000
0+
#455000
b11111111111111111111111111111111 ["
b111111110000 Q"
b10000 X"
1:
b10000000000 ^
b10000000000 P"
b10000000000 P
b10000000000 3"
b1000000000 5"
b10000 ?"
b1000000000 @"
1+
#460000
0+
#465000
b11111111111111111111111111111111 ["
b111111110001 Q"
b1111 X"
1:
b100000000000 ^
b100000000000 P"
b100000000000 P
b100000000000 3"
b10000000000 5"
b1111 ?"
b10000000000 @"
1+
#470000
0+
#475000
b11111111111111111111111111111111 ["
b111111110010 Q"
b1110 X"
1:
b1000000000000 ^
b1000000000000 P"
b1000000000000 P
b1000000000000 3"
b100000000000 5"
b1110 ?"
b100000000000 @"
1+
#480000
0+
#485000
b11111111111111111111111111111111 ["
b111111110011 Q"
b1101 X"
1:
b10000000000000 ^
b10000000000000 P"
b10000000000000 P
b10000000000000 3"
b1000000000000 5"
b1101 ?"
b1000000000000 @"
1+
#490000
0+
#495000
b11111111111111111111111111111111 ["
b111111110100 Q"
b1100 X"
1:
b100000000000000 ^
b100000000000000 P"
b100000000000000 P
b100000000000000 3"
b10000000000000 5"
b1100 ?"
b10000000000000 @"
1+
#500000
0+
#505000
b11111111111111111111111111111111 ["
b111111110101 Q"
b1011 X"
1:
b1000000000000000 ^
b1000000000000000 P"
b1000000000000000 P
b1000000000000000 3"
b100000000000000 5"
b1011 ?"
b100000000000000 @"
1+
#510000
0+
#515000
b11111111111111111111111111111111 ["
b111111110110 Q"
b1010 X"
1:
b10000000000000000 ^
b10000000000000000 P"
b10000000000000000 P
b10000000000000000 3"
b1000000000000000 5"
b1010 ?"
b1000000000000000 @"
1+
#520000
0+
#525000
b11111111111111111111111111111111 ["
b111111110111 Q"
b1001 X"
1:
b100000000000000000 ^
b100000000000000000 P"
b100000000000000000 P
b100000000000000000 3"
b10000000000000000 5"
b1001 ?"
b10000000000000000 @"
1+
#530000
0+
#535000
b11111111111111111111111111111111 ["
b111111111000 Q"
b1000 X"
1:
b1000000000000000000 ^
b1000000000000000000 P"
b1000000000000000000 P
b1000000000000000000 3"
b100000000000000000 5"
b1000 ?"
b100000000000000000 @"
1+
#540000
0+
#545000
b11111111111111111111111111111111 ["
b111111111001 Q"
b111 X"
1:
b10000000000000000000 ^
b10000000000000000000 P"
b10000000000000000000 P
b10000000000000000000 3"
b1000000000000000000 5"
b111 ?"
b1000000000000000000 @"
1+
#550000
0+
#555000
b11111111111111111111111111111111 ["
b111111111010 Q"
b110 X"
1:
b100000000000000000000 ^
b100000000000000000000 P"
b100000000000000000000 P
b100000000000000000000 3"
b10000000000000000000 5"
b110 ?"
b10000000000000000000 @"
1+
#560000
0+
#565000
b11111111111111111111111111111111 ["
b111111111011 Q"
b101 X"
1:
b1000000000000000000000 ^
b1000000000000000000000 P"
b1000000000000000000000 P
b1000000000000000000000 3"
b100000000000000000000 5"
b101 ?"
b100000000000000000000 @"
1+
#570000
0+
#575000
b11111111111111111111111111111111 ["
b111111111100 Q"
b100 X"
1:
b10000000000000000000000 ^
b10000000000000000000000 P"
b10000000000000000000000 P
b10000000000000000000000 3"
b1000000000000000000000 5"
b100 ?"
b1000000000000000000000 @"
1+
#580000
0+
#585000
b11111111111111111111111111111111 ["
b111111111101 Q"
b11 X"
1:
b100000000000000000000000 ^
b100000000000000000000000 P"
b100000000000000000000000 P
b100000000000000000000000 3"
b10000000000000000000000 5"
b11 ?"
b10000000000000000000000 @"
1+
#590000
0+
#595000
b11111111111111111111111111111111 ["
b111111111110 Q"
b10 X"
1:
b1000000000000000000000000 ^
b1000000000000000000000000 P"
b1000000000000000000000000 P
b1000000000000000000000000 3"
b100000000000000000000000 5"
b10 ?"
b100000000000000000000000 @"
1+
#600000
0+
#605000
b11111111111111111111111111111111 ["
b111111111111 Q"
b1 X"
1:
b10000000000000000000000000 ^
b10000000000000000000000000 P"
b10000000000000000000000000 P
b10000000000000000000000000 3"
b1000000000000000000000000 5"
b1 ?"
b1000000000000000000000000 @"
1+
#610000
0+
#615000
b0 Q"
b0 X"
1:
b100000000000000000000000000 ^
b100000000000000000000000000 P"
b100000000000000000000000000 P
b100000000000000000000000000 3"
b1100000000000000000000001 1"
b10000000000000000000000000 5"
b0 ?"
b10000000000000000000000000 @"
1+
#620000
0+
#625000
b10 B"
1+
#630000
0+
#635000
b0 B"
1S
0T
1+
#640000
0+
#645000
b10 h
0S
1+
#650000
0+
#655000
b0 h
1!
1g
0"
0f
b0 '
b0 1
b0 a
1&
1b
0(
0`
1+
#660000
0+
#665000
0&
0b
b100000000000000000000000000 W
b100000000000000000000000000 m
b100000000000000000000000000 ~
b10000000000000000000000000 o
b110000000000000000000000000 w
b10000000000000000000000 !"
0n
b110000000000000000000000000 A
b110000000000000000000000000 E"
b110000000000000000000000 x
b1111110 ?
b1111110 S"
b1111110 Q"
0:
b1000000000000000000000000000000000000000000000000 r
b1 s
b11000000000000000000000000000000000000000000000 G"
b110000000000000000000000 C
b110000000000000000000000 u
b110000000000000000000000 ,"
b110000000000000000000000 6"
b110000000000000000000000 H"
b110000000000000000000000 a"
b1111110 ]
b1111110 O"
b1 {
b1111111 q
b10000000000000000000000 b"
b10000000 B
b10000000 F"
b1111111 M"
b1111110 R
b1111110 4"
b1111111 :"
b1111111 N
b1111111 }
b1111111 /"
b1111111 ;"
b1111111 N"
b1111111 _"
b1000000010000000000000000000000 *
b1000000010000000000000000000000 0
b1000000010000000000000000000000 `"
b111111100000000000000000000000 )
b111111100000000000000000000000 /
b111111100000000000000000000000 \"
b10010010100111001000101010110000100000101000011010101000011101000100000001100010010111100110011 d"
b1000000010000000000000000000000 f"
b111111100000000000000000000000 e"
1+
#670000
0+
#675000
b1 h
1\
1(
1`
1.
1+
#680000
0+
#685000
b1100100 Q"
b11111111111111111111111111111111 ["
b11010 X"
b1100100 ?
b1100100 S"
b1 ^
b1 P"
b1 P
b1 3"
12"
b0 5"
0\
b1 B"
b11010 ?"
b1110000000000000000000000 1"
b110000000000000000000000 A"
b1000000000000000000000000000000000000000000000000 @"
1T
0.
1+
#690000
0+
