fpu_waveforms.vcd
$date
	Wed Apr 22 09:30:33 2026
$end
$version
	Icarus Verilog
$end
$timescale
	1ps
$end
$scope module fpu_tb $end
$var wire 1 ! f_underflow $end
$var wire 1 " f_overflow $end
$var wire 1 # f_inv_op $end
$var wire 1 $ f_inexact $end
$var wire 1 % f_div_zero $end
$var wire 1 & done $end
$var wire 32 ' c [31:0] $end
$var wire 1 ( busy $end
$var reg 32 ) a [31:0] $end
$var reg 32 * b [31:0] $end
$var reg 1 + clock $end
$var reg 3 , op [2:0] $end
$var reg 1 - reset $end
$var reg 1 . start $end
$scope module uut $end
$var wire 32 / a [31:0] $end
$var wire 32 0 b [31:0] $end
$var wire 1 ( busy $end
$var wire 32 1 c [31:0] $end
$var wire 1 + clock $end
$var wire 1 & done $end
$var wire 1 % f_div_zero $end
$var wire 1 $ f_inexact $end
$var wire 1 # f_inv_op $end
$var wire 1 " f_overflow $end
$var wire 1 ! f_underflow $end
$var wire 1 2 flag_inv_op_comb $end
$var wire 1 3 is_inv_add $end
$var wire 1 4 is_inv_div $end
$var wire 1 5 is_inv_mul $end
$var wire 1 6 is_inv_sub $end
$var wire 3 7 op [2:0] $end
$var wire 1 - reset $end
$var wire 1 . start $end
$var wire 1 8 sign_b $end
$var wire 1 9 sign_a $end
$var wire 1 : norm_underflow $end
$var wire 1 ; norm_sign_out $end
$var wire 1 < norm_overflow $end
$var wire 1 = norm_inexact $end
$var wire 23 > norm_frac_out [22:0] $end
$var wire 8 ? norm_exp_out [7:0] $end
$var wire 1 @ mul_sign $end
$var wire 28 A mul_mant [27:0] $end
$var wire 10 B mul_exp [9:0] $end
$var wire 24 C mant_b [23:0] $end
$var wire 24 D mant_a [23:0] $end
$var wire 1 E is_zero_b $end
$var wire 1 F is_zero_a $end
$var wire 1 G is_subnorm_b $end
$var wire 1 H is_subnorm_a $end
$var wire 1 I is_nan_b $end
$var wire 1 J is_nan_a $end
$var wire 1 K is_inf_b $end
$var wire 1 L is_inf_a $end
$var wire 8 M exp_b [7:0] $end
$var wire 8 N exp_a [7:0] $end
$var wire 1 O div_sign $end
$var wire 28 P div_mant [27:0] $end
$var wire 1 Q div_f_div_zero $end
$var wire 10 R div_exp [9:0] $end
$var wire 1 S div_done_out $end
$var wire 1 T div_busy_out $end
$var wire 32 U cmp_res [31:0] $end
$var wire 1 V add_sign $end
$var wire 28 W add_mant [27:0] $end
$var wire 8 X add_exp [7:0] $end
$var parameter 2 Y COMPUTE $end
$var parameter 2 Z FINISH $end
$var parameter 2 [ IDLE $end
$var reg 1 \ div_start_reg $end
$var reg 10 ] norm_exp_in [9:0] $end
$var reg 28 ^ norm_mant_in [27:0] $end
$var reg 1 _ norm_sign_in $end
$var reg 1 ` reg_busy $end
$var reg 32 a reg_c [31:0] $end
$var reg 1 b reg_done $end
$var reg 1 c reg_f_div_zero $end
$var reg 1 d reg_f_inexact $end
$var reg 1 e reg_f_inv_op $end
$var reg 1 f reg_f_overflow $end
$var reg 1 g reg_f_underflow $end
$var reg 2 h state [1:0] $end
$scope module adder $end
$var wire 1 i a_is_larger $end
$var wire 1 j eff_sub $end
$var wire 1 k op_sub $end
$var wire 8 l res_exp [7:0] $end
$var wire 28 m res_mant [27:0] $end
$var wire 1 n sticky_bit $end
$var wire 28 o smaller_mant_ext [27:0] $end
$var wire 24 p smaller_mant [23:0] $end
$var wire 8 q smaller_exp [7:0] $end
$var wire 1 8 sign_b $end
$var wire 1 9 sign_a $end
$var wire 51 r shifted_smaller [50:0] $end
$var wire 8 s shift_amt [7:0] $end
$var wire 1 t round_bit $end
$var wire 1 V res_sign $end
$var wire 51 u mant_to_shift [50:0] $end
$var wire 24 v mant_b [23:0] $end
$var wire 24 w mant_a [23:0] $end
$var wire 28 x larger_mant_ext [27:0] $end
$var wire 24 y larger_mant [23:0] $end
$var wire 8 z larger_exp [7:0] $end
$var wire 1 { guard_bit $end
$var wire 8 | exp_diff [7:0] $end
$var wire 8 } exp_b [7:0] $end
$var wire 8 ~ exp_a [7:0] $end
$var wire 28 !" calc_mant [27:0] $end
$var wire 24 "" aligned_smaller_mant [23:0] $end
$scope module shifter_inst $end
$var wire 51 #" data_in [50:0] $end
$var wire 51 $" data_out [50:0] $end
$var wire 5 %" shamt [4:0] $end
$var wire 51 &" s4 [50:0] $end
$var wire 51 '" s3 [50:0] $end
$var wire 51 (" s2 [50:0] $end
$var wire 51 )" s1 [50:0] $end
$var wire 51 *" s0 [50:0] $end
$upscope $end
$upscope $end
$scope module comparator $end
$var wire 1 +" a_is_nan $end
$var wire 1 ," any_nan $end
$var wire 1 -" b_is_nan $end
$var wire 1 ." both_neg_lt $end
$var wire 1 /" both_pos_lt $end
$var wire 1 0" both_zero $end
$var wire 1 1" diff_signs_lt $end
$var wire 1 2" is_slt $end
$var wire 1 3" mag_a_gt_mag_b $end
$var wire 1 4" mag_a_lt_mag_b $end
$var wire 1 5" raw_equal $end
$var wire 1 6" raw_lt $end
$var wire 1 8 sign_b $end
$var wire 1 9 sign_a $end
$var wire 32 7" res_cmp [31:0] $end
$var wire 24 8" mant_b [23:0] $end
$var wire 24 9" mant_a [23:0] $end
$var wire 1 E is_zero_b $end
$var wire 1 F is_zero_a $end
$var wire 1 :" is_equal $end
$var wire 8 ;" exp_b [7:0] $end
$var wire 8 <" exp_a [7:0] $end
$var wire 1 =" condition_met $end
$var wire 1 >" a_lt_b $end
$upscope $end
$scope module divider $end
$var wire 1 + clock $end
$var wire 1 O res_sign $end
$var wire 1 - reset $end
$var wire 1 \ start $end
$var wire 25 ?" sub_resultado [24:0] $end
$var wire 1 @" sticky_bit $end
$var wire 1 8 sign_b $end
$var wire 1 9 sign_a $end
$var wire 28 A" res_mant [27:0] $end
$var wire 10 B" res_exp [9:0] $end
$var wire 24 C" mant_b [23:0] $end
$var wire 24 D" mant_a [23:0] $end
$var wire 1 Q f_div_zero $end
$var wire 10 E" exp_b_ext [9:0] $end
$var wire 8 F" exp_b [7:0] $end
$var wire 10 G" exp_a_ext [9:0] $end
$var wire 8 H" exp_a [7:0] $end
$var parameter 2 I" FIM $end
$var parameter 2 J" IDLE $end
$var parameter 2 K" SHIFT $end
$var reg 25 L" acc [24:0] $end
$var reg 1 T busy $end
$var reg 5 M" count [4:0] $end
$var reg 25 N" divisor_reg [24:0] $end
$var reg 1 S done $end
$var reg 26 O" quociente [25:0] $end
$var reg 2 P" state [1:0] $end
$upscope $end
$scope module multiplier $end
$var wire 1 @ res_sign $end
$var wire 1 Q" sticky_bit $end
$var wire 1 8 sign_b $end
$var wire 1 9 sign_a $end
$var wire 1 R" round_bit $end
$var wire 28 S" res_mant [27:0] $end
$var wire 10 T" res_exp [9:0] $end
$var wire 48 U" mult_result [47:0] $end
$var wire 24 V" mant_b [23:0] $end
$var wire 24 W" mant_a [23:0] $end
$var wire 1 X" guard_bit $end
$var wire 10 Y" exp_b_ext [9:0] $end
$var wire 8 Z" exp_b [7:0] $end
$var wire 10 [" exp_a_ext [9:0] $end
$var wire 8 \" exp_a [7:0] $end
$upscope $end
$scope module normalizer $end
$var wire 10 ]" exp_in [9:0] $end
$var wire 28 ^" mant_in [27:0] $end
$var wire 1 _ sign $end
$var wire 28 _" mant_right_out [27:0] $end
$var wire 28 `" mant_left_out [27:0] $end
$var reg 12 a" adj_exp [11:0] $end
$var reg 1 = f_inexact $end
$var reg 1 < f_overflow $end
$var reg 1 : f_underflow $end
$var reg 1 b" guard $end
$var reg 5 c" left_shift_amt [4:0] $end
$var reg 8 d" res_exp [7:0] $end
$var reg 23 e" res_frac [22:0] $end
$var reg 1 ; res_sign $end
$var reg 1 f" round $end
$var reg 1 g" round_up $end
$var reg 25 h" rounded_mant [24:0] $end
$var reg 28 i" shifted_mant [27:0] $end
$var reg 1 j" sticky $end
$scope module shift_l $end
$var wire 28 k" data_in [27:0] $end
$var wire 28 l" data_out [27:0] $end
$var wire 5 m" shamt [4:0] $end
$var wire 28 n" s4 [27:0] $end
$var wire 28 o" s3 [27:0] $end
$var wire 28 p" s2 [27:0] $end
$var wire 28 q" s1 [27:0] $end
$var wire 28 r" s0 [27:0] $end
$upscope $end
$scope module shift_r $end
$var wire 28 s" data_in [27:0] $end
$var wire 28 t" data_out [27:0] $end
$var wire 5 u" shamt [4:0] $end
$var wire 28 v" s4 [27:0] $end
$var wire 28 w" s3 [27:0] $end
$var wire 28 x" s2 [27:0] $end
$var wire 28 y" s1 [27:0] $end
$var wire 28 z" s0 [27:0] $end
$upscope $end
$upscope $end
$scope module unp_a $end
$var wire 1 L is_inf $end
$var wire 1 J is_nan $end
$var wire 1 H is_subnormal $end
$var wire 1 F is_zero $end
$var wire 32 {" operand [31:0] $end
$var wire 1 9 sign $end
$var wire 24 |" mant [23:0] $end
$var wire 23 }" frac [22:0] $end
$var wire 8 ~" exp [7:0] $end
$upscope $end
$scope module unp_b $end
$var wire 1 K is_inf $end
$var wire 1 I is_nan $end
$var wire 1 G is_subnormal $end
$var wire 1 E is_zero $end
$var wire 32 !# operand [31:0] $end
$var wire 1 8 sign $end
$var wire 24 "# mant [23:0] $end
$var wire 23 ## frac [22:0] $end
$var wire 8 $# exp [7:0] $end
$upscope $end
$upscope $end
$scope task run_test $end
$var reg 112 %# test_name [112:1] $end
$var reg 32 &# val_a [31:0] $end
$var reg 32 '# val_b [31:0] $end
$var reg 3 (# val_op [2:0] $end
$upscope $end
$upscope $end
$enddefinitions $end
$comment Show the parameter values. $end
$dumpall
b1 K"
b0 J"
b10 I"
b0 [
b10 Z
b1 Y
$end
#0
$dumpvars
bx (#
bx '#
bx &#
bx %#
b0 $#
b0 ##
b0 "#
b0 !#
b0 ~"
b0 }"
b0 |"
b0 {"
b0 z"
b0 y"
b0 x"
b0 w"
b0 v"
b1 u"
b0 t"
b0 s"
b0 r"
b0 q"
b0 p"
b0 o"
b0 n"
b0 m"
b0 l"
b0 k"
xj"
b0 i"
bx h"
xg"
xf"
b0 e"
b0 d"
b0 c"
xb"
b0 a"
b0 `"
b0 _"
b0 ^"
b0 ]"
b0 \"
b0 ["
b0 Z"
b0 Y"
0X"
b0 W"
b0 V"
b0 U"
b1110000001 T"
b0 S"
0R"
0Q"
b0 P"
b0 O"
b0 N"
b0 M"
b0 L"
b0 H"
b0 G"
b0 F"
b0 E"
b0 D"
b0 C"
b1111111 B"
b0 A"
0@"
b0 ?"
0>"
1="
b0 <"
b0 ;"
1:"
b0 9"
b0 8"
b111111100000000000000000000000 7"
06"
15"
04"
03"
02"
01"
10"
0/"
0."
0-"
0,"
0+"
b0 *"
b0 )"
b0 ("
b0 '"
b0 &"
b0 %"
b0 $"
b0 #"
b0 ""
b0 !"
b0 ~
b0 }
b0 |
0{
b0 z
b0 y
b0 x
b0 w
b0 v
b0 u
0t
b0 s
b0 r
b0 q
b0 p
b0 o
0n
b0 m
b0 l
0k
0j
0i
b0 h
0g
0f
0e
0d
0c
0b
b0 a
0`
0_
b0 ^
b0 ]
0\
b0 X
b0 W
0V
b111111100000000000000000000000 U
0T
0S
b1111111 R
1Q
b0 P
0O
b0 N
b0 M
0L
0K
0J
0I
0H
0G
1F
1E
b0 D
b0 C
b1110000001 B
b0 A
0@
b0 ?
b0 >
0=
0<
0;
0:
09
08
b0 7
06
05
04
03
02
b0 1
b0 0
b0 /
0.
1-
b0 ,
0+
b0 *
b0 )
0(
b0 '
0&
0%
0$
0#
0"
0!
$end
#5000
1+
#10000
0+
#15000
1+
#20000
0+
0-
#25000
1+
#30000
0+
#35000
1+
#40000
12
b0 U
b0 7"
1>"
0="
15
b100000000000000000000000000 W
b100000000000000000000000000 m
b100000000000000000000000000 !"
16"
0:"
b100000000000000000000000000 x
05"
b11011 %"
00"
b100000000000000000000000 y
1/"
b11011 s
b10000000 a"
0E
1K
0Q
b100000000000000000000000 C
b100000000000000000000000 v
b100000000000000000000000 8"
b100000000000000000000000 C"
b100000000000000000000000 V"
b100000000000000000000000 "#
14"
b11111111 |
b11111111 X
b11111111 l
b11111111 z
b10000000 ]
b10000000 ]"
b10000000 B
b10000000 T"
b11111111 Y"
b1110000000 R
b1110000000 B"
b11111111 E"
b11111111 M
b11111111 }
b11111111 ;"
b11111111 F"
b11111111 Z"
b11111111 $#
0+
b10 ,
b10 7
b1111111100000000000000000000000 *
b1111111100000000000000000000000 0
b1111111100000000000000000000000 !#
b10010010100111001010110001110100010000000110000001000000010101000100000010010010110111001100110 %#
b10 (#
b1111111100000000000000000000000 '#
b0 &#
#45000
b1 h
1(
1`
1.
1+
#50000
0+
#55000
b10 h
0.
1+
#60000
0+
#65000
b0 h
b1111111110000000000000000000000 '
b1111111110000000000000000000000 1
b1111111110000000000000000000000 a
1#
1e
1&
1b
0(
0`
1+
#70000
0+
#75000
0&
0b
0>"
14
06"
1:"
b0 W
b0 m
b0 !"
0V
b0 x
15"
b0 %"
1j
b0 U
b0 7"
12
10"
b0 y
0/"
b0 s
b1111111 a"
0="
1E
0K
1Q
b0 C
b0 v
b0 8"
b0 C"
b0 V"
b0 "#
04"
b0 |
b0 X
b0 l
b0 z
b1111111 ]
b1111111 ]"
1k
12"
05
b1110000001 B
b1110000001 T"
b0 Y"
b1111111 R
b1111111 B"
b0 E"
b0 M
b0 }
b0 ;"
b0 F"
b0 Z"
b0 $#
b11 ,
b11 7
b0 *
b0 0
b0 !#
b1001001010011100101011000111010001000000011000000100000001011110010000000110000 %#
b11 (#
b0 '#
1+
#80000
0+
#85000
b1 h
1\
1(
1`
1.
1+
#90000
0+
#95000
1S
0\
0.
1+
#100000
0+
#105000
b10 h
0S
1+
#110000
0+
#115000
b0 h
1%
1c
1&
1b
0(
0`
1+
#120000
0+
#125000
0&
0b
b0 _"
b0 t"
b0 v"
b0 `"
b0 l"
b0 n"
b0 w"
b0 o"
b0 x"
b100000000000000000000000000 o
b0 p"
b0 y"
b100000000000000000000000 ""
b0 q"
b0 z"
b10000000000000000000000000000000000000000000000000 r
b10000000000000000000000000000000000000000000000000 $"
b10000000000000000000000000000000000000000000000000 &"
b0 r"
b0 ?
b0 d"
0<
b100000000000000000000000 h"
0g"
0j"
0f"
0b"
b0 i"
b10000000000000000000000000000000000000000000000000 '"
b0 ^
b0 ^"
b0 k"
b0 s"
b10000000000000000000000000000000000000000000000000 ("
b0 W
b0 m
b0 !"
b10000000000000000000000000000000000000000000000000 )"
16
b100000000000000000000000000 x
b10000000000000000000000000000000000000000000000000 *"
b100000000000000000000000000 A
b100000000000000000000000000 S"
b100000000000000000000000 y
00"
b10000000000000000000000000000000000000000000000000 u
b10000000000000000000000000000000000000000000000000 #"
b100000000000000000000000 p
b11111111 a"
12
0E
1K
b10000000000000000000000000000000000000000000000 U"
0Q
b100000000000000000000000 C
b100000000000000000000000 v
b100000000000000000000000 8"
b100000000000000000000000 C"
b100000000000000000000000 V"
b100000000000000000000000 "#
b11111111 X
b11111111 l
b11111111 z
0F
1L
b100000000000000000000000 D
b100000000000000000000000 w
b100000000000000000000000 9"
b100000000000000000000000 D"
b100000000000000000000000 W"
b100000000000000000000000 |"
b0 |
b11111111 q
b11111111 ]
b11111111 ]"
04
b11111111 Y"
b11111111 E"
b11111111 M
b11111111 }
b11111111 ;"
b11111111 F"
b11111111 Z"
b11111111 $#
b101111111 B
b101111111 T"
b11111111 ["
b1111111 R
b1111111 B"
b11111111 G"
b11111111 N
b11111111 ~
b11111111 <"
b11111111 H"
b11111111 \"
b11111111 ~"
b1 ,
b1 7
b1111111100000000000000000000000 *
b1111111100000000000000000000000 0
b1111111100000000000000000000000 !#
b1111111100000000000000000000000 )
b1111111100000000000000000000000 /
b1111111100000000000000000000000 {"
b100100101001110010101100011101000100000010010010110111001100110001000000010110100100000010010010110111001100110 %#
b1 (#
b1111111100000000000000000000000 '#
b1111111100000000000000000000000 &#
1+
#130000
0+
#135000
b1 h
1(
1`
1.
1+
#140000
0+
#145000
b10 h
0.
1+
#150000
0+
#155000
b0 h
0%
0c
1&
1b
0(
0`
1+
#160000
0+
#165000
0&
0b
1j"
1=
0b"
1n
b110000000000000000000000001 i"
b11000000000000000000000000 _"
b11000000000000000000000000 t"
b11000000000000000000000000 v"
b1100000000000000000000000010 `"
b1100000000000000000000000010 l"
b1100000000000000000000000010 n"
b11000000000000000000000000 w"
0{
b1100000000000000000000000010 o"
b11000000000000000000000000 x"
b1 o
b1100000000000000000000000010 p"
b11000000000000000000000000 y"
b10000000000000000000000000000000000000000000000 ("
b0 ""
b1100000000000000000000000010 q"
b11000000000000000000000000 z"
b1000000000000000000000000000000000000000000000000 *"
b10000000000000000000000000000000000000000000000 )"
b100000000000000000000000000000000000000 '"
b10000000000000000000000 r
b10000000000000000000000 $"
b10000000000000000000000 &"
b1100000000000000000000000010 r"
b1 c"
b1 m"
b11111111 ?
b11111111 d"
1<
b110000000000000000000000 h"
b11111111 a"
b110000000000000000000000001 ^
b110000000000000000000000001 ^"
b110000000000000000000000001 k"
b110000000000000000000000001 s"
b11011 %"
0:"
1,"
b110000000000000000000000001 W
b110000000000000000000000001 m
b110000000000000000000000001 !"
b110000000000000000000000000 x
b11011 s
05"
1+"
0j
b0 U
b0 7"
06
b110000000000000000000000 y
b10000000 |
b1111111 q
b110000000000000000000000000 A
b110000000000000000000000000 S"
0="
0K
13"
1i
0L
1J
b11000000000000000000000000000000000000000000000 U"
b110000000000000000000000 D
b110000000000000000000000 w
b110000000000000000000000 9"
b110000000000000000000000 D"
b110000000000000000000000 W"
b110000000000000000000000 |"
0k
02"
b11111111 B
b11111111 T"
b1111111 Y"
b11111111 R
b11111111 B"
b1111111 E"
b1111111 M
b1111111 }
b1111111 ;"
b1111111 F"
b1111111 Z"
b1111111 $#
b10000000000000000000000 }"
b0 ,
b0 7
b111111100000000000000000000000 *
b111111100000000000000000000000 0
b111111100000000000000000000000 !#
b1111111110000000000000000000000 )
b1111111110000000000000000000000 /
b1111111110000000000000000000000 {"
b100100101001110010101100011101000100000010011100110000101001110001000000010101100100000001100010010111000110000 %#
b0 (#
b111111100000000000000000000000 '#
b1111111110000000000000000000000 &#
1+
#170000
0+
#175000
b1 h
1(
1`
1.
1+
#180000
0+
#185000
b10 h
0.
1+
#190000
0+
#195000
b0 h
1&
1b
0(
0`
1+
#200000
0+
#205000
0&
0b
b0 o
0n
b0 r
b0 $"
b0 &"
b0 '"
b0 ("
b0 `"
b0 l"
b0 n"
b0 _"
b0 t"
b0 v"
b0 )"
02
b0 o"
b0 w"
b0 p"
b0 x"
b0 *"
b0 q"
b0 y"
b100000000000000000000000000 W
b100000000000000000000000000 m
b100000000000000000000000000 !"
b100000000000000000000000000 x
b0 r"
b0 z"
1j
b0 u
b0 #"
b0 p
0,"
b0 A
b0 S"
b100000000000000000000000 y
b0 c"
b0 m"
b0 i"
b11111110 a"
0=
0<
b0 ?
b0 d"
1E
1Q
b0 C
b0 v
b0 8"
b0 C"
b0 V"
b0 "#
b0 q
0+"
b1111111 |
b1111111 X
b1111111 l
b1111111 z
0J
b0 U"
b100000000000000000000000 D
b100000000000000000000000 w
b100000000000000000000000 9"
b100000000000000000000000 D"
b100000000000000000000000 W"
b100000000000000000000000 |"
b0 ^
b0 ^"
b0 k"
b0 s"
b11111110 ]
b11111110 ]"
1k
12"
b0 Y"
b0 E"
b0 M
b0 }
b0 ;"
b0 F"
b0 Z"
b0 $#
b0 B
b0 T"
b1111111 ["
b11111110 R
b11111110 B"
b1111111 G"
b1111111 N
b1111111 ~
b1111111 <"
b1111111 H"
b1111111 \"
b1111111 ~"
b0 }"
b11 ,
b11 7
b0 *
b0 0
b0 !#
b111111100000000000000000000000 )
b111111100000000000000000000000 /
b111111100000000000000000000000 {"
b1000100010010010101011000110000001110100010000000110001001011100011000000100000001011110010000000110000 %#
b11 (#
b0 '#
b111111100000000000000000000000 &#
1+
#210000
0+
#215000
b1 h
1\
1(
1`
1.
1+
#220000
0+
#225000
0\
1S
0.
1+
#230000
0+
#235000
0S
b10 h
1+
#240000
0+
#245000
b0 h
b1111111100000000000000000000000 '
b1111111100000000000000000000000 1
b1111111100000000000000000000000 a
1%
1c
0#
0e
1&
1b
0(
0`
1+
#250000
0+
#255000
0&
0b
b1 o
1n
b10000000000000000000000 r
b10000000000000000000000 $"
b10000000000000000000000 &"
b11111111111111111111111100 _"
b11111111111111111111111100 t"
b11111111111111111111111100 v"
b100000000000000000000000000000000000000 '"
b1111111111111111111111110000 `"
b1111111111111111111111110000 l"
b1111111111111111111111110000 n"
b11111111111111111111111100 w"
b1111111111111111111111110000 o"
b11111111111111111111111100 x"
b10000000000000000000000000000000000000000000000 ("
b1111111111111111111111110000 p"
b11111111111111111111111100 y"
b10000000000000000000000000000000000000000000000 )"
b1111111111111111111111110000 q"
b11111111111111111111111100 z"
b1111111111111111111111110000 r"
b1 c"
b1 m"
b11111111 ?
b11111111 d"
1<
b111111111111111111111111 h"
0j"
b111111111111111111111111000 i"
b1000000000000000000000000000000000000000000000000 *"
b111111111111111111111111001 W
b111111111111111111111111001 m
b111111111111111111111111001 !"
b111111111111111111111111000 ^
b111111111111111111111111000 ^"
b111111111111111111111111000 k"
b111111111111111111111111000 s"
b111111111111111111111111000 x
0j
b111111111111111111111111000 A
b111111111111111111111111000 S"
b10000000000000000000000000000000000000000000000000 u
b10000000000000000000000000000000000000000000000000 #"
b100000000000000000000000 p
b111111111111111111111111 y
b11111111 a"
0E
b11111111111111111111111100000000000000000000000 U"
0Q
b100000000000000000000000 C
b100000000000000000000000 v
b100000000000000000000000 8"
b100000000000000000000000 C"
b100000000000000000000000 V"
b100000000000000000000000 "#
b10000000 q
b1111110 |
b11111110 X
b11111110 l
b11111110 z
b111111111111111111111111 D
b111111111111111111111111 w
b111111111111111111111111 9"
b111111111111111111111111 D"
b111111111111111111111111 W"
b111111111111111111111111 |"
b11111111 ]
b11111111 ]"
0k
02"
b10000000 Y"
b10000000 E"
b10000000 M
b10000000 }
b10000000 ;"
b10000000 F"
b10000000 Z"
b10000000 $#
b11111111 B
b11111111 T"
b11111110 ["
b11111101 R
b11111101 B"
b11111110 G"
b11111110 N
b11111110 ~
b11111110 <"
b11111110 H"
b11111110 \"
b11111110 ~"
b11111111111111111111111 }"
b10 ,
b10 7
b1000000000000000000000000000000 *
b1000000000000000000000000000000 0
b1000000000000000000000000000000 !#
b1111111011111111111111111111111 )
b1111111011111111111111111111111 /
b1111111011111111111111111111111 {"
b100111101010110010001100011101000100000010011010110000101111000001000000010101000100000001100100010111000110000 %#
b10 (#
b1000000000000000000000000000000 '#
b1111111011111111111111111111111 &#
1+
#260000
0+
#265000
b1 h
1(
1`
1.
1+
#270000
0+
#275000
b10 h
0.
1+
#280000
0+
#285000
b0 h
1"
1f
0%
0c
1&
1b
0(
0`
1+
#290000
0+
#295000
0&
0b
0f"
b111111111111111111111111000 _"
b111111111111111111111111000 t"
b111111111111111111111111000 v"
b111111111111111111111111000 w"
b111111111111111111111111000 x"
b111111111111111111111111000 y"
b111111111111111111111111000 z"
b1 c"
b1 m"
b111111111111111111111111 h"
0g"
0b"
0{
b1111111111111111111111110000 W
b1111111111111111111111110000 m
b1111111111111111111111110000 !"
b111111111111111111111111000 o
b1111111111111111111111100000 `"
b1111111111111111111111100000 l"
b1111111111111111111111100000 n"
b11111111111111111111111100000000000000000000000000 ("
0n
b111111111111111111111111 ""
b111111100000000000000000000000 U
b111111100000000000000000000000 7"
b1111111111111111111111100000 o"
b11111111111111111111111100000000000000000000000000 )"
b11111111111111111111111100000000000000000000000000 '"
b11111111111111111111111100000000000000000000000000 r
b11111111111111111111111100000000000000000000000000 $"
b11111111111111111111111100000000000000000000000000 &"
1="
b1111111111111111111111100000 p"
1:"
b11111111111111111111111100000000000000000000000000 *"
b1111111111111111111111100000 q"
b0 %"
15"
b1111111111111111111111100000 r"
b0 s
1Q"
b1111111111111111111111100001 A
b1111111111111111111111100001 S"
b11111111111111111111111100000000000000000000000000 u
b11111111111111111111111100000000000000000000000000 #"
b111111111111111111111111 p
b0 >
b0 e"
0=
0j"
b111111111111111111111111000 i"
b11111111 a"
1<
b11111111 ?
b11111111 d"
03"
b0 |
b11111110 q
0i
b111111111111111111111110000000000000000000000001 U"
b111111111111111111111111 C
b111111111111111111111111 v
b111111111111111111111111 8"
b111111111111111111111111 C"
b111111111111111111111111 V"
b111111111111111111111111 "#
b1111111111111111111111110000 ^
b1111111111111111111111110000 ^"
b1111111111111111111111110000 k"
b1111111111111111111111110000 s"
b11111110 ]
b11111110 ]"
b101111101 B
b101111101 T"
b11111110 Y"
b1111111 R
b1111111 B"
b11111110 E"
b11111110 M
b11111110 }
b11111110 ;"
b11111110 F"
b11111110 Z"
b11111110 $#
b11111111111111111111111 ##
b0 ,
b0 7
b1111111011111111111111111111111 *
b1111111011111111111111111111111 0
b1111111011111111111111111111111 !#
b100111101010110010001100011101000100000010011010110000101111000001000000010101100100000010011010110000101111000 %#
b0 (#
b1111111011111111111111111111111 '#
1+
#300000
0+
#305000
b1 h
1(
1`
1.
1+
#310000
0+
#315000
b10 h
0.
1+
#320000
0+
#325000
b0 h
1&
1b
0(
0`
1+
#330000
0+
#335000
0&
0b
b1 o
b0 `"
b0 l"
b0 n"
b0 _"
b0 t"
b0 v"
1n
0t
0{
b0 ""
b0 o"
b0 w"
1>"
b100000000000000000000000000000000000000 '"
b10000000000000000000000 r
b10000000000000000000000 $"
b10000000000000000000000 &"
b10000000000000000000000000000000000000000000000 ("
b0 p"
b0 x"
16"
0:"
b10000000000000000000000000000000000000000000000 )"
b0 q"
b0 y"
b11111111111111111111111111 W
b11111111111111111111111111 m
b11111111111111111111111111 !"
1V
b100000000000000000000000000 x
b11011 %"
05"
b1000000000000000000000000000000000000000000000000 *"
b0 r"
b0 z"
1j
b111111100000000000000000000000 U
b111111100000000000000000000000 7"
b100000000000000000000000 y
1/"
b11011 s
0Q"
b100000000000000000000000000 A
b100000000000000000000000000 S"
b10000000000000000000000000000000000000000000000000 u
b10000000000000000000000000000000000000000000000000 #"
b100000000000000000000000 p
b0 c"
b0 m"
b0 i"
b0 a"
0<
b0 ?
b0 d"
1="
b10000000 X
b10000000 l
b10000000 z
b100000000000000000000000 C
b100000000000000000000000 v
b100000000000000000000000 8"
b100000000000000000000000 C"
b100000000000000000000000 V"
b100000000000000000000000 "#
14"
b1111111 |
b1 q
b10000000000000000000000000000000000000000000000 U"
b100000000000000000000000 D
b100000000000000000000000 w
b100000000000000000000000 9"
b100000000000000000000000 D"
b100000000000000000000000 W"
b100000000000000000000000 |"
b0 ^
b0 ^"
b0 k"
b0 s"
b0 ]
b0 ]"
1k
12"
b10000000 Y"
b10000000 E"
b10000000 M
b10000000 }
b10000000 ;"
b10000000 F"
b10000000 Z"
b10000000 $#
b0 ##
b10 B
b10 T"
b1 ["
b0 R
b0 B"
b1 G"
b1 N
b1 ~
b1 <"
b1 H"
b1 \"
b1 ~"
b0 }"
b11 ,
b11 7
b1000000000000000000000000000000 *
b1000000000000000000000000000000 0
b1000000000000000000000000000000 !#
b100000000000000000000000 )
b100000000000000000000000 /
b100000000000000000000000 {"
b101010101001110010001100011101000100000010011010110100101101110001000000010111100100000001100100010111000110000 %#
b11 (#
b1000000000000000000000000000000 '#
b100000000000000000000000 &#
1+
#340000
0+
#345000
b1 h
1\
1(
1`
1.
1+
#350000
0+
#355000
b100000000000000000000000000 i"
b100000000000000000000000000 `"
b100000000000000000000000000 l"
b100000000000000000000000000 n"
b10000000000 o"
b100 p"
b100 q"
b111111100110 a"
b1 r"
b11010 c"
b11010 m"
1:
b100000000000000000000000 h"
b1 ^
b1 ^"
b1 k"
b1 s"
b1 P
b1 A"
b1 P"
b11010 M"
b100000000000000000000000 N"
b0 ?"
1@"
b100000000000000000000000 L"
1T
0\
0.
1+
#360000
0+
#365000
b1 _"
b1 t"
b1 v"
b1 w"
b1 x"
b1 y"
b100 p"
b1 z"
b100000000000000000000000 h"
b100 q"
b10000000000 o"
b100000000000000000000000000 `"
b100000000000000000000000000 l"
b100000000000000000000000000 n"
b100 r"
b11001 c"
b11001 m"
b100000000000000000000000000 i"
b111111100111 a"
1:
b10 ^
b10 ^"
b10 k"
b10 s"
b10 P
b10 A"
b11001 M"
b1 O"
b1100000000000000000000000 ?"
0@"
b0 L"
1+
#370000
0+
#375000
b10 _"
b10 t"
b10 v"
b10 w"
b10 x"
b10 y"
b10 z"
b11000 c"
b11000 m"
b111111101000 a"
1:
b100 ^
b100 ^"
b100 k"
b100 s"
b100 P
b100 A"
b11000 M"
b10 O"
1+
#380000
0+
#385000
b100 _"
b100 t"
b100 v"
b100000000000000000000000 h"
b100000000000000000000000000 i"
b100 w"
b100000000000000000000000000 `"
b100000000000000000000000000 l"
b100000000000000000000000000 n"
b100 x"
b100 y"
b10000000000 p"
b10000000000 o"
b1000000 q"
b100 z"
b10000 r"
b10111 c"
b10111 m"
b111111101001 a"
1:
b1000 ^
b1000 ^"
b1000 k"
b1000 s"
b1000 P
b1000 A"
b10111 M"
b100 O"
1+
#390000
0+
#395000
b1000 _"
b1000 t"
b1000 v"
b1000 w"
b1000 x"
b1000 y"
b1000 z"
b10110 c"
b10110 m"
b111111101010 a"
1:
b10000 ^
b10000 ^"
b10000 k"
b10000 s"
b10000 P
b10000 A"
b10110 M"
b1000 O"
1+
#400000
0+
#405000
b100000000000000000000000 h"
b100000000000000000000000000 i"
b100000000000000000000000000 `"
b100000000000000000000000000 l"
b100000000000000000000000000 n"
b10000 _"
b10000 t"
b10000 v"
b10000000000 o"
b10000 w"
b10000000000 p"
b10000 x"
b10000 y"
b1000000 q"
b10000 z"
b1000000 r"
b10101 c"
b10101 m"
b111111101011 a"
1:
b100000 ^
b100000 ^"
b100000 k"
b100000 s"
b100000 P
b100000 A"
b10101 M"
b10000 O"
1+
#410000
0+
