fpu_waveforms.vcd
$date
	Thu Apr 23 23:57:54 2026
$end
$version
	Icarus Verilog
$end
$timescale
	1ps
$end
$scope module fpu_tb $end
$var wire 1 ! f_underflow $end
$var wire 1 " f_overflow $end
$var wire 1 # f_inv_op $end
$var wire 1 $ f_inexact $end
$var wire 1 % f_div_zero $end
$var wire 1 & done $end
$var wire 32 ' c [31:0] $end
$var wire 1 ( busy $end
$var reg 32 ) a [31:0] $end
$var reg 32 * b [31:0] $end
$var reg 1 + clock $end
$var reg 3 , op [2:0] $end
$var reg 1 - reset $end
$var reg 1 . start $end
$scope module uut $end
$var wire 32 / a [31:0] $end
$var wire 32 0 b [31:0] $end
$var wire 1 ( busy $end
$var wire 32 1 c [31:0] $end
$var wire 1 + clock $end
$var wire 1 & done $end
$var wire 1 % f_div_zero $end
$var wire 1 $ f_inexact $end
$var wire 1 # f_inv_op $end
$var wire 1 " f_overflow $end
$var wire 1 ! f_underflow $end
$var wire 1 2 flag_inv_op_comb $end
$var wire 1 3 is_inv_add $end
$var wire 1 4 is_inv_div $end
$var wire 1 5 is_inv_mul $end
$var wire 1 6 is_inv_sub $end
$var wire 3 7 op [2:0] $end
$var wire 1 - reset $end
$var wire 1 . start $end
$var wire 1 8 sign_b $end
$var wire 1 9 sign_a $end
$var wire 1 : norm_underflow $end
$var wire 1 ; norm_sign_out $end
$var wire 1 < norm_overflow $end
$var wire 1 = norm_inexact $end
$var wire 23 > norm_frac_out [22:0] $end
$var wire 8 ? norm_exp_out [7:0] $end
$var wire 1 @ mul_sign $end
$var wire 28 A mul_mant [27:0] $end
$var wire 10 B mul_exp [9:0] $end
$var wire 1 C mul_done_out $end
$var wire 1 D mul_busy_out $end
$var wire 24 E mant_b [23:0] $end
$var wire 24 F mant_a [23:0] $end
$var wire 1 G is_zero_b $end
$var wire 1 H is_zero_a $end
$var wire 1 I is_subnorm_b $end
$var wire 1 J is_subnorm_a $end
$var wire 1 K is_nan_b $end
$var wire 1 L is_nan_a $end
$var wire 1 M is_inf_b $end
$var wire 1 N is_inf_a $end
$var wire 8 O exp_b [7:0] $end
$var wire 8 P exp_a [7:0] $end
$var wire 1 Q div_sign $end
$var wire 28 R div_mant [27:0] $end
$var wire 1 S div_f_div_zero $end
$var wire 10 T div_exp [9:0] $end
$var wire 1 U div_done_out $end
$var wire 1 V div_busy_out $end
$var wire 32 W cmp_res [31:0] $end
$var wire 1 X add_sign $end
$var wire 28 Y add_mant [27:0] $end
$var wire 8 Z add_exp [7:0] $end
$var parameter 2 [ COMPUTE $end
$var parameter 2 \ FINISH $end
$var parameter 2 ] IDLE $end
$var reg 1 ^ div_start_reg $end
$var reg 1 _ mul_start_reg $end
$var reg 10 ` norm_exp_in [9:0] $end
$var reg 28 a norm_mant_in [27:0] $end
$var reg 1 b norm_sign_in $end
$var reg 1 c reg_busy $end
$var reg 32 d reg_c [31:0] $end
$var reg 1 e reg_done $end
$var reg 1 f reg_f_div_zero $end
$var reg 1 g reg_f_inexact $end
$var reg 1 h reg_f_inv_op $end
$var reg 1 i reg_f_overflow $end
$var reg 1 j reg_f_underflow $end
$var reg 1 k spec_is_inf $end
$var reg 1 l spec_is_zero $end
$var reg 1 m spec_sign $end
$var reg 2 n state [1:0] $end
$scope module adder $end
$var wire 1 o a_is_larger $end
$var wire 1 p eff_sub $end
$var wire 1 q force_sticky $end
$var wire 1 r op_sub $end
$var wire 8 s res_exp [7:0] $end
$var wire 28 t res_mant [27:0] $end
$var wire 1 u sticky_bit $end
$var wire 28 v smaller_mant_ext [27:0] $end
$var wire 24 w smaller_mant [23:0] $end
$var wire 8 x smaller_exp [7:0] $end
$var wire 1 8 sign_b $end
$var wire 1 9 sign_a $end
$var wire 51 y shifted_smaller [50:0] $end
$var wire 8 z shift_amt [7:0] $end
$var wire 1 { round_bit $end
$var wire 1 X res_sign $end
$var wire 51 | mant_to_shift [50:0] $end
$var wire 24 } mant_b [23:0] $end
$var wire 24 ~ mant_a [23:0] $end
$var wire 28 !" larger_mant_ext [27:0] $end
$var wire 24 "" larger_mant [23:0] $end
$var wire 8 #" larger_exp [7:0] $end
$var wire 1 $" guard_bit $end
$var wire 8 %" exp_diff [7:0] $end
$var wire 8 &" exp_b [7:0] $end
$var wire 8 '" exp_a [7:0] $end
$var wire 28 (" calc_mant [27:0] $end
$var wire 24 )" aligned_smaller_mant [23:0] $end
$scope module shifter_inst $end
$var wire 51 *" data_in [50:0] $end
$var wire 51 +" data_out [50:0] $end
$var wire 5 ," shamt [4:0] $end
$var wire 51 -" s4 [50:0] $end
$var wire 51 ." s3 [50:0] $end
$var wire 51 /" s2 [50:0] $end
$var wire 51 0" s1 [50:0] $end
$var wire 51 1" s0 [50:0] $end
$upscope $end
$upscope $end
$scope module comparator $end
$var wire 1 2" a_is_nan $end
$var wire 1 3" any_nan $end
$var wire 1 4" b_is_nan $end
$var wire 1 5" both_neg_lt $end
$var wire 1 6" both_pos_lt $end
$var wire 1 7" both_zero $end
$var wire 1 8" diff_signs_lt $end
$var wire 1 9" is_slt $end
$var wire 1 :" mag_a_gt_mag_b $end
$var wire 1 ;" mag_a_lt_mag_b $end
$var wire 1 <" raw_equal $end
$var wire 1 =" raw_lt $end
$var wire 1 8 sign_b $end
$var wire 1 9 sign_a $end
$var wire 32 >" res_cmp [31:0] $end
$var wire 24 ?" mant_b [23:0] $end
$var wire 24 @" mant_a [23:0] $end
$var wire 1 G is_zero_b $end
$var wire 1 H is_zero_a $end
$var wire 1 A" is_equal $end
$var wire 8 B" exp_b [7:0] $end
$var wire 8 C" exp_a [7:0] $end
$var wire 1 D" condition_met $end
$var wire 1 E" a_lt_b $end
$upscope $end
$scope module divider $end
$var wire 1 + clock $end
$var wire 1 S f_div_zero $end
$var wire 1 Q res_sign $end
$var wire 1 - reset $end
$var wire 1 ^ start $end
$var wire 1 8 sign_b $end
$var wire 1 9 sign_a $end
$var wire 28 F" res_mant [27:0] $end
$var wire 10 G" res_exp [9:0] $end
$var wire 24 H" mant_b [23:0] $end
$var wire 24 I" mant_a [23:0] $end
$var wire 10 J" exp_b_ext [9:0] $end
$var wire 8 K" exp_b [7:0] $end
$var wire 10 L" exp_a_ext [9:0] $end
$var wire 8 M" exp_a [7:0] $end
$var parameter 3 N" CLEANUP $end
$var parameter 3 O" FIM $end
$var parameter 3 P" IDLE $end
$var parameter 3 Q" RESTORE $end
$var parameter 3 R" SHIFT $end
$var parameter 3 S" SUBTRACT $end
$var reg 25 T" acc [24:0] $end
$var reg 1 V busy $end
$var reg 5 U" count [4:0] $end
$var reg 25 V" divisor_reg [24:0] $end
$var reg 1 U done $end
$var reg 26 W" quociente [25:0] $end
$var reg 3 X" state [2:0] $end
$var reg 1 Y" sticky_bit_reg $end
$upscope $end
$scope module multiplier $end
$var wire 1 + clock $end
$var wire 1 @ res_sign $end
$var wire 1 - reset $end
$var wire 1 _ start $end
$var wire 1 Z" sticky_bit $end
$var wire 1 8 sign_b $end
$var wire 1 9 sign_a $end
$var wire 1 [" round_bit $end
$var wire 28 \" res_mant [27:0] $end
$var wire 10 ]" res_exp [9:0] $end
$var wire 24 ^" mant_b [23:0] $end
$var wire 24 _" mant_a [23:0] $end
$var wire 1 `" guard_bit $end
$var wire 10 a" exp_b_ext [9:0] $end
$var wire 8 b" exp_b [7:0] $end
$var wire 10 c" exp_a_ext [9:0] $end
$var wire 8 d" exp_a [7:0] $end
$var parameter 2 e" COMPUTE $end
$var parameter 2 f" FINISH $end
$var parameter 2 g" IDLE $end
$var reg 48 h" acc [47:0] $end
$var reg 1 D busy $end
$var reg 5 i" count [4:0] $end
$var reg 1 C done $end
$var reg 48 j" multiplicand [47:0] $end
$var reg 24 k" multiplier [23:0] $end
$var reg 2 l" state [1:0] $end
$upscope $end
$scope module normalizer $end
$var wire 10 m" exp_in [9:0] $end
$var wire 28 n" mant_in [27:0] $end
$var wire 1 b sign $end
$var wire 12 o" underflow_diff [11:0] $end
$var wire 28 p" subnormal_shifted_out [27:0] $end
$var wire 5 q" subnormal_shamt [4:0] $end
$var wire 28 r" mant_right_out [27:0] $end
$var wire 28 s" mant_left_out [27:0] $end
$var reg 12 t" adj_exp [11:0] $end
$var reg 1 = f_inexact $end
$var reg 1 < f_overflow $end
$var reg 1 : f_underflow $end
$var reg 1 u" guard $end
$var reg 1 v" inexact_temp $end
$var reg 5 w" left_shift_amt [4:0] $end
$var reg 8 x" res_exp [7:0] $end
$var reg 23 y" res_frac [22:0] $end
$var reg 1 ; res_sign $end
$var reg 1 z" round $end
$var reg 1 {" round_up $end
$var reg 25 |" rounded_mant [24:0] $end
$var reg 28 }" shifted_mant [27:0] $end
$var reg 12 ~" signed_exp_in [11:0] $end
$var reg 1 !# sticky $end
$scope module shift_l $end
$var wire 28 "# data_in [27:0] $end
$var wire 28 ## data_out [27:0] $end
$var wire 5 $# shamt [4:0] $end
$var wire 28 %# s4 [27:0] $end
$var wire 28 &# s3 [27:0] $end
$var wire 28 '# s2 [27:0] $end
$var wire 28 (# s1 [27:0] $end
$var wire 28 )# s0 [27:0] $end
$upscope $end
$scope module shift_r $end
$var wire 28 *# data_in [27:0] $end
$var wire 28 +# data_out [27:0] $end
$var wire 5 ,# shamt [4:0] $end
$var wire 28 -# s4 [27:0] $end
$var wire 28 .# s3 [27:0] $end
$var wire 28 /# s2 [27:0] $end
$var wire 28 0# s1 [27:0] $end
$var wire 28 1# s0 [27:0] $end
$upscope $end
$scope module uflow_shifter $end
$var wire 28 2# data_in [27:0] $end
$var wire 28 3# data_out [27:0] $end
$var wire 5 4# shamt [4:0] $end
$var wire 28 5# s4 [27:0] $end
$var wire 28 6# s3 [27:0] $end
$var wire 28 7# s2 [27:0] $end
$var wire 28 8# s1 [27:0] $end
$var wire 28 9# s0 [27:0] $end
$upscope $end
$upscope $end
$scope module unp_a $end
$var wire 1 N is_inf $end
$var wire 1 L is_nan $end
$var wire 1 J is_subnormal $end
$var wire 1 H is_zero $end
$var wire 32 :# operand [31:0] $end
$var wire 1 9 sign $end
$var wire 8 ;# raw_exp [7:0] $end
$var wire 24 <# mant [23:0] $end
$var wire 23 =# frac [22:0] $end
$var wire 8 ># exp [7:0] $end
$upscope $end
$scope module unp_b $end
$var wire 1 M is_inf $end
$var wire 1 K is_nan $end
$var wire 1 I is_subnormal $end
$var wire 1 G is_zero $end
$var wire 32 ?# operand [31:0] $end
$var wire 1 8 sign $end
$var wire 8 @# raw_exp [7:0] $end
$var wire 24 A# mant [23:0] $end
$var wire 23 B# frac [22:0] $end
$var wire 8 C# exp [7:0] $end
$upscope $end
$upscope $end
$scope task run_test $end
$var reg 160 D# test_name [160:1] $end
$var reg 32 E# val_a [31:0] $end
$var reg 32 F# val_b [31:0] $end
$var reg 3 G# val_op [2:0] $end
$upscope $end
$upscope $end
$enddefinitions $end
$comment Show the parameter values. $end
$dumpall
b0 g"
b10 f"
b1 e"
b1 S"
b11 R"
b10 Q"
b0 P"
b101 O"
b100 N"
b0 ]
b10 \
b1 [
$end
#0
$dumpvars
bx G#
bx F#
bx E#
bx D#
b1 C#
b0 B#
b0 A#
b0 @#
b0 ?#
b1 >#
b0 =#
b0 <#
b0 ;#
b0 :#
b0 9#
b0 8#
b0 7#
b0 6#
b0 5#
b1 4#
b0 3#
b0 2#
b0 1#
b0 0#
b0 /#
b0 .#
b0 -#
b1 ,#
b0 +#
b0 *#
b0 )#
b0 (#
b0 '#
b0 &#
b0 %#
b0 $#
b0 ##
b0 "#
0!#
b1 ~"
b0 }"
b0 |"
0{"
0z"
b0 y"
b0 x"
b0 w"
0v"
0u"
b0 t"
b0 s"
b0 r"
b1 q"
b0 p"
b1 o"
b0 n"
b1 m"
b0 l"
b0 k"
b0 j"
b0 i"
b0 h"
b1 d"
b1 c"
b1 b"
b1 a"
0`"
b0 _"
b0 ^"
b1110000011 ]"
b0 \"
0["
0Z"
0Y"
b0 X"
b0 W"
b0 V"
b0 U"
b0 T"
b1 M"
b1 L"
b1 K"
b1 J"
b0 I"
b0 H"
b1111111 G"
b0 F"
0E"
1D"
b1 C"
b1 B"
1A"
b0 @"
b0 ?"
b111111100000000000000000000000 >"
0="
1<"
0;"
0:"
09"
08"
17"
06"
05"
04"
03"
02"
b0 1"
b0 0"
b0 /"
b0 ."
b0 -"
b0 ,"
b0 +"
b0 *"
b0 )"
b0 ("
b1 '"
b1 &"
b0 %"
0$"
b1 #"
b0 ""
b0 !"
b0 ~
b0 }
b0 |
0{
b0 z
b0 y
b1 x
b0 w
b0 v
0u
b0 t
b1 s
0r
0q
0p
0o
b0 n
0m
0l
0k
0j
0i
0h
0g
0f
0e
b0 d
0c
0b
b0 a
b1 `
0_
0^
b1 Z
b0 Y
0X
b111111100000000000000000000000 W
0V
0U
b1111111 T
0S
b0 R
0Q
b1 P
b1 O
0N
0M
0L
0K
0J
0I
1H
1G
b0 F
b0 E
0D
0C
b1110000011 B
b0 A
0@
b0 ?
b0 >
0=
0<
0;
0:
09
08
b0 7
06
05
04
03
02
b0 1
b0 0
b0 /
0.
1-
b0 ,
0+
b0 *
b0 )
0(
b0 '
0&
0%
0$
0#
0"
0!
$end
#5000
1+
#10000
0+
#15000
1+
#20000
0+
0-
#25000
1+
#30000
0+
#35000
1+
#40000
12
1E"
b0 W
b0 >"
1="
0D"
15
b11011 ,"
0A"
b100000000000000000000000000 Y
b100000000000000000000000000 t
b100000000000000000000000000 ("
16"
b11011 z
0<"
b100000000000000000000000000 !"
07"
1k
1;"
b11111110 %"
b11111111 Z
b11111111 s
b11111111 #"
b100000000000000000000000 ""
b10000001 ~"
0G
1M
b10000001 B
b10000001 ]"
b11111111 a"
b1110000001 T
b1110000001 G"
b11111111 J"
b11111111 O
b11111111 &"
b11111111 B"
b11111111 K"
b11111111 b"
b11111111 C#
b100000000000000000000000 E
b100000000000000000000000 }
b100000000000000000000000 ?"
b100000000000000000000000 H"
b100000000000000000000000 ^"
b100000000000000000000000 A#
b10000001 `
b10000001 m"
b11111111 @#
0+
b10 ,
b10 7
b1111111100000000000000000000000 *
b1111111100000000000000000000000 0
b1111111100000000000000000000000 ?#
b10010010100111001010110001110100010000000110000001000000010101000100000010010010110111001100110 D#
b10 G#
b1111111100000000000000000000000 F#
b0 E#
#45000
b1 n
1_
1(
1c
1.
1+
#50000
0+
#55000
b1 l"
b11000 i"
b100000000000000000000000 k"
1D
0_
0.
1+
#60000
0+
#65000
b10111 i"
b10000000000000000000000 k"
1+
#70000
0+
#75000
b10110 i"
b1000000000000000000000 k"
1+
#80000
0+
#85000
b10101 i"
b100000000000000000000 k"
1+
#90000
0+
#95000
b10100 i"
b10000000000000000000 k"
1+
#100000
0+
#105000
b10011 i"
b1000000000000000000 k"
1+
#110000
0+
#115000
b10010 i"
b100000000000000000 k"
1+
#120000
0+
#125000
b10001 i"
b10000000000000000 k"
1+
#130000
0+
#135000
b10000 i"
b1000000000000000 k"
1+
#140000
0+
#145000
b1111 i"
b100000000000000 k"
1+
#150000
0+
#155000
b1110 i"
b10000000000000 k"
1+
#160000
0+
#165000
b1101 i"
b1000000000000 k"
1+
#170000
0+
#175000
b1100 i"
b100000000000 k"
1+
#180000
0+
#185000
b1011 i"
b10000000000 k"
1+
#190000
0+
#195000
b1010 i"
b1000000000 k"
1+
#200000
0+
#205000
b1001 i"
b100000000 k"
1+
#210000
0+
#215000
b1000 i"
b10000000 k"
1+
#220000
0+
#225000
b111 i"
b1000000 k"
1+
#230000
0+
#235000
b110 i"
b100000 k"
1+
#240000
0+
#245000
b101 i"
b10000 k"
1+
#250000
0+
#255000
b100 i"
b1000 k"
1+
#260000
0+
#265000
b11 i"
b100 k"
1+
#270000
0+
#275000
b10 i"
b10 k"
1+
#280000
0+
#285000
b1 i"
b1 k"
1+
#290000
0+
#295000
b0 i"
b0 k"
1+
#300000
0+
#305000
b10 l"
1+
#310000
0+
#315000
b0 l"
1C
0D
1+
#320000
0+
#325000
b10 n
0C
1+
#330000
0+
#335000
b0 n
b1111111110000000000000000000000 '
b1111111110000000000000000000000 1
b1111111110000000000000000000000 d
1#
1h
1&
1e
0(
0c
1+
#340000
0+
#345000
0&
0e
0E"
0="
1A"
14
b0 ,"
b0 Y
b0 t
b0 ("
0X
1<"
06"
b0 z
b0 !"
1p
b0 W
b0 >"
12
17"
0;"
b0 %"
b1 Z
b1 s
b1 #"
b0 ""
b1111111 ~"
0D"
1G
0M
b1110000011 B
b1110000011 ]"
b1 a"
b1111111 T
b1111111 G"
b1 J"
b1 O
b1 &"
b1 B"
b1 K"
b1 b"
b1 C#
b0 E
b0 }
b0 ?"
b0 H"
b0 ^"
b0 A#
0l
0k
b1111111 `
b1111111 m"
1r
19"
05
b0 @#
b11 ,
b11 7
b0 *
b0 0
b0 ?#
b1001001010011100101011000111010001000000011000000100000001011110010000000110000 D#
b11 G#
b0 F#
1+
#350000
0+
#355000
b1 n
1^
1(
1c
1.
1+
#360000
0+
#365000
0^
b1 X"
b11010 U"
1V
0.
1+
#370000
0+
#375000
b10 X"
1+
#380000
0+
#385000
b100000000000000000000000 p"
b100000000000000000000000 3#
b100000000000000000000000 5#
b100000000000000000000000 6#
b100000000000000000000000 7#
b100000000000000000000000 8#
b100000000000000000000000 9#
b0 >
b0 y"
b100000000000000000000000 2#
b100000000000000000000000 |"
b100000000000000000000000000 }"
b100000000000000000000000000 s"
b100000000000000000000000000 ##
b100000000000000000000000000 %#
b1 r"
b1 +#
b1 -#
b10000000000 &#
b1 .#
b1 /#
b100 '#
b1 0#
b0 q"
b0 4#
b100 (#
b1 1#
b1100110 ?
b1100110 x"
b100 )#
b11001 w"
b11001 $#
b111110011011 o"
b1100110 t"
0:
b10 a
b10 n"
b10 "#
b10 *#
b10 R
b10 F"
b11 X"
b11001 U"
b1 W"
1+
#390000
0+
#395000
b1 X"
1+
#400000
0+
#405000
b10 X"
1+
#410000
0+
#415000
b110000000000000000000000 p"
b110000000000000000000000 3#
b110000000000000000000000 5#
b110000000000000000000000 6#
b110000000000000000000000 7#
b110000000000000000000000 8#
b110000000000000000000000 9#
b10000000000000000000000 >
b10000000000000000000000 y"
b110000000000000000000000 2#
b110000000000000000000000 |"
b110000000000000000000000000 }"
b110000000000000000000000000 s"
b110000000000000000000000000 ##
b110000000000000000000000000 %#
b11000000000 &#
b11 r"
b11 +#
b11 -#
b11 .#
b110 '#
b11 /#
b110 (#
b11 0#
b110 )#
b11 1#
b111110011010 o"
b1100111 t"
b11000 w"
b11000 $#
b1100111 ?
b1100111 x"
b110 a
b110 n"
b110 "#
b110 *#
b110 R
b110 F"
b11 X"
b11000 U"
b11 W"
1+
#420000
0+
#425000
b1 X"
1+
#430000
0+
#435000
b10 X"
1+
#440000
0+
#445000
b111000000000000000000000 p"
b111000000000000000000000 3#
b111000000000000000000000 5#
b111000000000000000000000 6#
b111000000000000000000000 7#
b111000000000000000000000 8#
b111000000000000000000000 9#
b111000000000000000000000 2#
b111 r"
b111 +#
b111 -#
b111000000000000000000000 |"
b111000000000000000000000000 }"
b111 .#
b111000000000000000000000000 s"
b111000000000000000000000000 ##
b111000000000000000000000000 %#
b111 /#
b111 0#
b11100000000 '#
b11100000000 &#
b1110000 (#
b111 1#
b111110011001 o"
b1101000 t"
b11100 )#
b10111 w"
b10111 $#
b11000000000000000000000 >
b11000000000000000000000 y"
b1101000 ?
b1101000 x"
b1110 a
b1110 n"
b1110 "#
b1110 *#
b1110 R
b1110 F"
b11 X"
b10111 U"
b111 W"
1+
#450000
0+
#455000
b1 X"
1+
#460000
0+
#465000
b10 X"
1+
#470000
0+
#475000
b111100000000000000000000 p"
b111100000000000000000000 3#
b111100000000000000000000 5#
b111100000000000000000000 6#
b111100000000000000000000 7#
b111100000000000000000000 8#
b111100000000000000000000 9#
b111100000000000000000000 2#
b111100000000000000000000 |"
b111100000000000000000000000 }"
b111100000000000000000000000 s"
b111100000000000000000000000 ##
b111100000000000000000000000 %#
b11110000000 &#
b11110000000 '#
b1111 r"
b1111 +#
b1111 -#
b1111 .#
b1111000 (#
b1111 /#
b1111 0#
b11110 )#
b1111 1#
b111110011000 o"
b1101001 t"
b10110 w"
b10110 $#
b11100000000000000000000 >
b11100000000000000000000 y"
b1101001 ?
b1101001 x"
b11110 a
b11110 n"
b11110 "#
b11110 *#
b11110 R
b11110 F"
b11 X"
b10110 U"
b1111 W"
1+
#480000
0+
#485000
b1 X"
1+
#490000
0+
#495000
b10 X"
1+
#500000
0+
#505000
b111110000000000000000000 p"
b111110000000000000000000 3#
b111110000000000000000000 5#
b111110000000000000000000 6#
b111110000000000000000000 7#
b111110000000000000000000 8#
b111110000000000000000000 9#
b111110000000000000000000 2#
b111110000000000000000000 |"
b111110000000000000000000000 }"
b111110000000000000000000000 s"
b111110000000000000000000000 ##
b111110000000000000000000000 %#
b11111 r"
b11111 +#
b11111 -#
b11111000000 &#
b11111 .#
b11111000000 '#
b11111 /#
b11111 0#
b1111100 (#
b11111 1#
b111110010111 o"
b1101010 t"
b1111100 )#
b10101 w"
b10101 $#
b11110000000000000000000 >
b11110000000000000000000 y"
b1101010 ?
b1101010 x"
b111110 a
b111110 n"
b111110 "#
b111110 *#
b111110 R
b111110 F"
b11 X"
b10101 U"
b11111 W"
1+
#510000
0+
#515000
b1 X"
1+
#520000
0+
#525000
b10 X"
1+
#530000
0+
#535000
b111111000000000000000000 p"
b111111000000000000000000 3#
b111111000000000000000000 5#
b111111000000000000000000 6#
b111111000000000000000000 7#
b111111000000000000000000 8#
b111111000000000000000000 9#
b111111000000000000000000 2#
b111111000000000000000000 |"
b111111000000000000000000000 }"
b111111000000000000000000000 s"
b111111000000000000000000000 ##
b111111000000000000000000000 %#
b11111100000 &#
b111111 r"
b111111 +#
b111111 -#
b11111100000 '#
b111111 .#
b111111 /#
b1111110 (#
b111111 0#
b1111110 )#
b111111 1#
b111110010110 o"
b1101011 t"
b10100 w"
b10100 $#
b11111000000000000000000 >
b11111000000000000000000 y"
b1101011 ?
b1101011 x"
b1111110 a
b1111110 n"
b1111110 "#
b1111110 *#
b1111110 R
b1111110 F"
b11 X"
b10100 U"
b111111 W"
1+
#540000
0+
#545000
b1 X"
1+
#550000
0+
#555000
b10 X"
1+
#560000
0+
#565000
b111111100000000000000000 p"
b111111100000000000000000 3#
b111111100000000000000000 5#
b111111100000000000000000 6#
b111111100000000000000000 7#
b111111100000000000000000 8#
b111111100000000000000000 9#
b111111100000000000000000 2#
b111111100000000000000000 |"
b111111100000000000000000000 }"
b1111111 r"
b1111111 +#
b1111111 -#
b111111100000000000000000000 s"
b111111100000000000000000000 ##
b111111100000000000000000000 %#
b1111111 .#
b1111111 /#
b11111110000 &#
b1111111 0#
b11111110000 '#
b11111110000 (#
b1111111 1#
b111110010101 o"
b1101100 t"
b111111100 )#
b10011 w"
b10011 $#
b11111100000000000000000 >
b11111100000000000000000 y"
b1101100 ?
b1101100 x"
b11111110 a
b11111110 n"
b11111110 "#
b11111110 *#
b11111110 R
b11111110 F"
b11 X"
b10011 U"
b1111111 W"
1+
#570000
0+
#575000
b1 X"
1+
#580000
0+
#585000
b10 X"
1+
#590000
0+
#595000
b111111110000000000000000 p"
b111111110000000000000000 3#
b111111110000000000000000 5#
b111111110000000000000000 6#
b111111110000000000000000 7#
b111111110000000000000000 8#
b111111110000000000000000 9#
b111111110000000000000000 2#
b111111110000000000000000 |"
b111111110000000000000000000 }"
b111111110000000000000000000 s"
b111111110000000000000000000 ##
b111111110000000000000000000 %#
b11111111000 &#
b11111111 r"
b11111111 +#
b11111111 -#
b11111111000 '#
b11111111 .#
b11111111000 (#
b11111111 /#
b11111111 0#
b111111110 )#
b11111111 1#
b111110010100 o"
b1101101 t"
b10010 w"
b10010 $#
b11111110000000000000000 >
b11111110000000000000000 y"
b1101101 ?
b1101101 x"
b111111110 a
b111111110 n"
b111111110 "#
b111111110 *#
b111111110 R
b111111110 F"
b11 X"
b10010 U"
b11111111 W"
1+
#600000
0+
#605000
b1 X"
1+
#610000
0+
#615000
b10 X"
1+
#620000
0+
#625000
b111111111000000000000000 p"
b111111111000000000000000 3#
b111111111000000000000000 5#
b111111111000000000000000 6#
b111111111000000000000000 7#
b111111111000000000000000 8#
b111111111000000000000000 9#
b111111111000000000000000 2#
b111111111000000000000000 |"
b111111111000000000000000000 }"
b111111111000000000000000000 s"
b111111111000000000000000000 ##
b111111111000000000000000000 %#
b111111111 r"
b111111111 +#
b111111111 -#
b111111111 .#
b11111111100 &#
b111111111 /#
b11111111100 '#
b111111111 0#
b11111111100 (#
b111111111 1#
b111110010011 o"
b1101110 t"
b11111111100 )#
b10001 w"
b10001 $#
b11111111000000000000000 >
b11111111000000000000000 y"
b1101110 ?
b1101110 x"
b1111111110 a
b1111111110 n"
b1111111110 "#
b1111111110 *#
b1111111110 R
b1111111110 F"
b11 X"
b10001 U"
b111111111 W"
1+
#630000
0+
#635000
b1 X"
1+
#640000
0+
#645000
b10 X"
1+
#650000
0+
#655000
b111111111100000000000000 p"
b111111111100000000000000 3#
b111111111100000000000000 5#
b111111111100000000000000 6#
b111111111100000000000000 7#
b111111111100000000000000 8#
b111111111100000000000000 9#
b111111111100000000000000 2#
b111111111100000000000000 |"
b111111111100000000000000000 }"
b111111111100000000000000000 s"
b111111111100000000000000000 ##
b111111111100000000000000000 %#
b1111111111 r"
b1111111111 +#
b1111111111 -#
b11111111110 &#
b1111111111 .#
b11111111110 '#
b1111111111 /#
b11111111110 (#
b1111111111 0#
b11111111110 )#
b1111111111 1#
b111110010010 o"
b1101111 t"
b10000 w"
b10000 $#
b11111111100000000000000 >
b11111111100000000000000 y"
b1101111 ?
b1101111 x"
b11111111110 a
b11111111110 n"
b11111111110 "#
b11111111110 *#
b11111111110 R
b11111111110 F"
b11 X"
b10000 U"
b1111111111 W"
1+
#660000
0+
#665000
b1 X"
1+
#670000
0+
#675000
b10 X"
1+
#680000
0+
#685000
b111111111110000000000000 p"
b111111111110000000000000 3#
b111111111110000000000000 5#
b111111111110000000000000 6#
b111111111110000000000000 7#
b111111111110000000000000 8#
b11111111111 r"
b11111111111 +#
b11111111111 -#
b111111111110000000000000 9#
b11111111111 .#
b111111111110000000000000 2#
0=
b11111111111 /#
b111111111110000000000000 |"
0{"
0v"
0z"
0u"
b111111111110000000000000000 }"
b11111111111 0#
b1111111111100000000 '#
b111111111110000000000000000 &#
b111111111110000000000000000 s"
b111111111110000000000000000 ##
b111111111110000000000000000 %#
b111111111110000 (#
b11111111111 1#
b111110010001 o"
b1110000 t"
b1111111111100 )#
b1111 w"
b1111 $#
b11111111110000000000000 >
b11111111110000000000000 y"
b1110000 ?
b1110000 x"
b111111111110 a
b111111111110 n"
b111111111110 "#
b111111111110 *#
b111111111110 R
b111111111110 F"
b11 X"
b1111 U"
b11111111111 W"
1+
#690000
0+
#695000
b1 X"
1+
#700000
0+
#705000
b10 X"
1+
#710000
0+
#715000
b111111111111000000000000 p"
b111111111111000000000000 3#
b111111111111000000000000 5#
b111111111111000000000000 6#
b111111111111000000000000 7#
b111111111111000000000000 8#
b111111111111000000000000 9#
b111111111111000000000000 2#
b111111111111000000000000 |"
b111111111111000000000000000 }"
b111111111111000000000000000 s"
b111111111111000000000000000 ##
b111111111111000000000000000 %#
b111111111111000000000000000 &#
b1111111111110000000 '#
b111111111111 r"
b111111111111 +#
b111111111111 -#
b111111111111 .#
b111111111111000 (#
b111111111111 /#
b111111111111 0#
b1111111111110 )#
b111111111111 1#
b111110010000 o"
b1110001 t"
b1110 w"
b1110 $#
b11111111111000000000000 >
b11111111111000000000000 y"
b1110001 ?
b1110001 x"
b1111111111110 a
b1111111111110 n"
b1111111111110 "#
b1111111111110 *#
b1111111111110 R
b1111111111110 F"
b11 X"
b1110 U"
b111111111111 W"
1+
#720000
0+
#725000
b1 X"
1+
#730000
0+
#735000
b10 X"
1+
#740000
0+
#745000
b111111111111100000000000 p"
b111111111111100000000000 3#
b111111111111100000000000 5#
b111111111111100000000000 6#
b111111111111100000000000 7#
b111111111111100000000000 8#
b111111111111100000000000 9#
b111111111111100000000000 2#
b111111111111100000000000 |"
b111111111111100000000000000 }"
b111111111111100000000000000 s"
b111111111111100000000000000 ##
b111111111111100000000000000 %#
b111111111111100000000000000 &#
b1111111111111 r"
b1111111111111 +#
b1111111111111 -#
b1111111111111 .#
b1111111111111000000 '#
b1111111111111 /#
b1111111111111 0#
b111111111111100 (#
b1111111111111 1#
b111110001111 o"
b1110010 t"
b111111111111100 )#
b1101 w"
b1101 $#
b11111111111100000000000 >
b11111111111100000000000 y"
b1110010 ?
b1110010 x"
b11111111111110 a
b11111111111110 n"
b11111111111110 "#
b11111111111110 *#
b11111111111110 R
b11111111111110 F"
b11 X"
b1101 U"
b1111111111111 W"
1+
#750000
0+
#755000
b1 X"
1+
#760000
0+
#765000
b10 X"
1+
#770000
0+
#775000
b111111111111110000000000 p"
b111111111111110000000000 3#
b111111111111110000000000 5#
b111111111111110000000000 6#
b111111111111110000000000 7#
b111111111111110000000000 8#
b111111111111110000000000 9#
b111111111111110000000000 2#
b111111111111110000000000 |"
b111111111111110000000000000 }"
b111111111111110000000000000 s"
b111111111111110000000000000 ##
b111111111111110000000000000 %#
b111111111111110000000000000 &#
b11111111111111 r"
b11111111111111 +#
b11111111111111 -#
b1111111111111100000 '#
b11111111111111 .#
b11111111111111 /#
b111111111111110 (#
b11111111111111 0#
b111111111111110 )#
b11111111111111 1#
b111110001110 o"
b1110011 t"
b1100 w"
b1100 $#
b11111111111110000000000 >
b11111111111110000000000 y"
b1110011 ?
b1110011 x"
b111111111111110 a
b111111111111110 n"
b111111111111110 "#
b111111111111110 *#
b111111111111110 R
b111111111111110 F"
b11 X"
b1100 U"
b11111111111111 W"
1+
#780000
0+
#785000
b1 X"
1+
